^C:\USERS\ANTON\ADCS SPACE CENTER\CPP VS\SOFA\SRC\A2AF.C
/c /ZI /JMC /nologo /W3 /WX- /diagnostics:column /sdl /Od /Oy- /D WIN32 /D _DEBUG /D _CONSOLE /D _UNICODE /D UNICODE /Gm- /EHsc /RTC1 /MDd /GS /fp:precise /permissive- /Zc:wchar_t /Zc:forScope /Zc:inline /Fo"DEBUG\\" /Fd"DEBUG\VC142.PDB" /Gd /TC /analyze- /FC C:\USERS\ANTON\ADCS SPACE CENTER\CPP VS\SOFA\SRC\A2AF.C
^C:\USERS\ANTON\ADCS SPACE CENTER\CPP VS\SOFA\SRC\A2TF.C
/c /ZI /JMC /nologo /W3 /WX- /diagnostics:column /sdl /Od /Oy- /D WIN32 /D _DEBUG /D _CONSOLE /D _UNICODE /D UNICODE /Gm- /EHsc /RTC1 /MDd /GS /fp:precise /permissive- /Zc:wchar_t /Zc:forScope /Zc:inline /Fo"DEBUG\\" /Fd"DEBUG\VC142.PDB" /Gd /TC /analyze- /FC C:\USERS\ANTON\ADCS SPACE CENTER\CPP VS\SOFA\SRC\A2TF.C
^C:\USERS\ANTON\ADCS SPACE CENTER\CPP VS\SOFA\SRC\AB.C
/c /ZI /JMC /nologo /W3 /WX- /diagnostics:column /sdl /Od /Oy- /D WIN32 /D _DEBUG /D _CONSOLE /D _UNICODE /D UNICODE /Gm- /EHsc /RTC1 /MDd /GS /fp:precise /permissive- /Zc:wchar_t /Zc:forScope /Zc:inline /Fo"DEBUG\\" /Fd"DEBUG\VC142.PDB" /Gd /TC /analyze- /FC C:\USERS\ANTON\ADCS SPACE CENTER\CPP VS\SOFA\SRC\AB.C
^C:\USERS\ANTON\ADCS SPACE CENTER\CPP VS\SOFA\SRC\AE2HD.C
/c /ZI /JMC /nologo /W3 /WX- /diagnostics:column /sdl /Od /Oy- /D WIN32 /D _DEBUG /D _CONSOLE /D _UNICODE /D UNICODE /Gm- /EHsc /RTC1 /MDd /GS /fp:precise /permissive- /Zc:wchar_t /Zc:forScope /Zc:inline /Fo"DEBUG\\" /Fd"DEBUG\VC142.PDB" /Gd /TC /analyze- /FC C:\USERS\ANTON\ADCS SPACE CENTER\CPP VS\SOFA\SRC\AE2HD.C
^C:\USERS\ANTON\ADCS SPACE CENTER\CPP VS\SOFA\SRC\AF2A.C
/c /ZI /JMC /nologo /W3 /WX- /diagnostics:column /sdl /Od /Oy- /D WIN32 /D _DEBUG /D _CONSOLE /D _UNICODE /D UNICODE /Gm- /EHsc /RTC1 /MDd /GS /fp:precise /permissive- /Zc:wchar_t /Zc:forScope /Zc:inline /Fo"DEBUG\\" /Fd"DEBUG\VC142.PDB" /Gd /TC /analyze- /FC C:\USERS\ANTON\ADCS SPACE CENTER\CPP VS\SOFA\SRC\AF2A.C
^C:\USERS\ANTON\ADCS SPACE CENTER\CPP VS\SOFA\SRC\ANP.C
/c /ZI /JMC /nologo /W3 /WX- /diagnostics:column /sdl /Od /Oy- /D WIN32 /D _DEBUG /D _CONSOLE /D _UNICODE /D UNICODE /Gm- /EHsc /RTC1 /MDd /GS /fp:precise /permissive- /Zc:wchar_t /Zc:forScope /Zc:inline /Fo"DEBUG\\" /Fd"DEBUG\VC142.PDB" /Gd /TC /analyze- /FC C:\USERS\ANTON\ADCS SPACE CENTER\CPP VS\SOFA\SRC\ANP.C
^C:\USERS\ANTON\ADCS SPACE CENTER\CPP VS\SOFA\SRC\ANPM.C
/c /ZI /JMC /nologo /W3 /WX- /diagnostics:column /sdl /Od /Oy- /D WIN32 /D _DEBUG /D _CONSOLE /D _UNICODE /D UNICODE /Gm- /EHsc /RTC1 /MDd /GS /fp:precise /permissive- /Zc:wchar_t /Zc:forScope /Zc:inline /Fo"DEBUG\\" /Fd"DEBUG\VC142.PDB" /Gd /TC /analyze- /FC C:\USERS\ANTON\ADCS SPACE CENTER\CPP VS\SOFA\SRC\ANPM.C
^C:\USERS\ANTON\ADCS SPACE CENTER\CPP VS\SOFA\SRC\APCG.C
/c /ZI /JMC /nologo /W3 /WX- /diagnostics:column /sdl /Od /Oy- /D WIN32 /D _DEBUG /D _CONSOLE /D _UNICODE /D UNICODE /Gm- /EHsc /RTC1 /MDd /GS /fp:precise /permissive- /Zc:wchar_t /Zc:forScope /Zc:inline /Fo"DEBUG\\" /Fd"DEBUG\VC142.PDB" /Gd /TC /analyze- /FC C:\USERS\ANTON\ADCS SPACE CENTER\CPP VS\SOFA\SRC\APCG.C
^C:\USERS\ANTON\ADCS SPACE CENTER\CPP VS\SOFA\SRC\APCG13.C
/c /ZI /JMC /nologo /W3 /WX- /diagnostics:column /sdl /Od /Oy- /D WIN32 /D _DEBUG /D _CONSOLE /D _UNICODE /D UNICODE /Gm- /EHsc /RTC1 /MDd /GS /fp:precise /permissive- /Zc:wchar_t /Zc:forScope /Zc:inline /Fo"DEBUG\\" /Fd"DEBUG\VC142.PDB" /Gd /TC /analyze- /FC C:\USERS\ANTON\ADCS SPACE CENTER\CPP VS\SOFA\SRC\APCG13.C
^C:\USERS\ANTON\ADCS SPACE CENTER\CPP VS\SOFA\SRC\APCI.C
/c /ZI /JMC /nologo /W3 /WX- /diagnostics:column /sdl /Od /Oy- /D WIN32 /D _DEBUG /D _CONSOLE /D _UNICODE /D UNICODE /Gm- /EHsc /RTC1 /MDd /GS /fp:precise /permissive- /Zc:wchar_t /Zc:forScope /Zc:inline /Fo"DEBUG\\" /Fd"DEBUG\VC142.PDB" /Gd /TC /analyze- /FC C:\USERS\ANTON\ADCS SPACE CENTER\CPP VS\SOFA\SRC\APCI.C
^C:\USERS\ANTON\ADCS SPACE CENTER\CPP VS\SOFA\SRC\APCI13.C
/c /ZI /JMC /nologo /W3 /WX- /diagnostics:column /sdl /Od /Oy- /D WIN32 /D _DEBUG /D _CONSOLE /D _UNICODE /D UNICODE /Gm- /EHsc /RTC1 /MDd /GS /fp:precise /permissive- /Zc:wchar_t /Zc:forScope /Zc:inline /Fo"DEBUG\\" /Fd"DEBUG\VC142.PDB" /Gd /TC /analyze- /FC C:\USERS\ANTON\ADCS SPACE CENTER\CPP VS\SOFA\SRC\APCI13.C
^C:\USERS\ANTON\ADCS SPACE CENTER\CPP VS\SOFA\SRC\APCO.C
/c /ZI /JMC /nologo /W3 /WX- /diagnostics:column /sdl /Od /Oy- /D WIN32 /D _DEBUG /D _CONSOLE /D _UNICODE /D UNICODE /Gm- /EHsc /RTC1 /MDd /GS /fp:precise /permissive- /Zc:wchar_t /Zc:forScope /Zc:inline /Fo"DEBUG\\" /Fd"DEBUG\VC142.PDB" /Gd /TC /analyze- /FC C:\USERS\ANTON\ADCS SPACE CENTER\CPP VS\SOFA\SRC\APCO.C
^C:\USERS\ANTON\ADCS SPACE CENTER\CPP VS\SOFA\SRC\APCO13.C
/c /ZI /JMC /nologo /W3 /WX- /diagnostics:column /sdl /Od /Oy- /D WIN32 /D _DEBUG /D _CONSOLE /D _UNICODE /D UNICODE /Gm- /EHsc /RTC1 /MDd /GS /fp:precise /permissive- /Zc:wchar_t /Zc:forScope /Zc:inline /Fo"DEBUG\\" /Fd"DEBUG\VC142.PDB" /Gd /TC /analyze- /FC C:\USERS\ANTON\ADCS SPACE CENTER\CPP VS\SOFA\SRC\APCO13.C
^C:\USERS\ANTON\ADCS SPACE CENTER\CPP VS\SOFA\SRC\APCS.C
/c /ZI /JMC /nologo /W3 /WX- /diagnostics:column /sdl /Od /Oy- /D WIN32 /D _DEBUG /D _CONSOLE /D _UNICODE /D UNICODE /Gm- /EHsc /RTC1 /MDd /GS /fp:precise /permissive- /Zc:wchar_t /Zc:forScope /Zc:inline /Fo"DEBUG\\" /Fd"DEBUG\VC142.PDB" /Gd /TC /analyze- /FC C:\USERS\ANTON\ADCS SPACE CENTER\CPP VS\SOFA\SRC\APCS.C
^C:\USERS\ANTON\ADCS SPACE CENTER\CPP VS\SOFA\SRC\APCS13.C
/c /ZI /JMC /nologo /W3 /WX- /diagnostics:column /sdl /Od /Oy- /D WIN32 /D _DEBUG /D _CONSOLE /D _UNICODE /D UNICODE /Gm- /EHsc /RTC1 /MDd /GS /fp:precise /permissive- /Zc:wchar_t /Zc:forScope /Zc:inline /Fo"DEBUG\\" /Fd"DEBUG\VC142.PDB" /Gd /TC /analyze- /FC C:\USERS\ANTON\ADCS SPACE CENTER\CPP VS\SOFA\SRC\APCS13.C
^C:\USERS\ANTON\ADCS SPACE CENTER\CPP VS\SOFA\SRC\APER.C
/c /ZI /JMC /nologo /W3 /WX- /diagnostics:column /sdl /Od /Oy- /D WIN32 /D _DEBUG /D _CONSOLE /D _UNICODE /D UNICODE /Gm- /EHsc /RTC1 /MDd /GS /fp:precise /permissive- /Zc:wchar_t /Zc:forScope /Zc:inline /Fo"DEBUG\\" /Fd"DEBUG\VC142.PDB" /Gd /TC /analyze- /FC C:\USERS\ANTON\ADCS SPACE CENTER\CPP VS\SOFA\SRC\APER.C
^C:\USERS\ANTON\ADCS SPACE CENTER\CPP VS\SOFA\SRC\APER13.C
/c /ZI /JMC /nologo /W3 /WX- /diagnostics:column /sdl /Od /Oy- /D WIN32 /D _DEBUG /D _CONSOLE /D _UNICODE /D UNICODE /Gm- /EHsc /RTC1 /MDd /GS /fp:precise /permissive- /Zc:wchar_t /Zc:forScope /Zc:inline /Fo"DEBUG\\" /Fd"DEBUG\VC142.PDB" /Gd /TC /analyze- /FC C:\USERS\ANTON\ADCS SPACE CENTER\CPP VS\SOFA\SRC\APER13.C
^C:\USERS\ANTON\ADCS SPACE CENTER\CPP VS\SOFA\SRC\APIO.C
/c /ZI /JMC /nologo /W3 /WX- /diagnostics:column /sdl /Od /Oy- /D WIN32 /D _DEBUG /D _CONSOLE /D _UNICODE /D UNICODE /Gm- /EHsc /RTC1 /MDd /GS /fp:precise /permissive- /Zc:wchar_t /Zc:forScope /Zc:inline /Fo"DEBUG\\" /Fd"DEBUG\VC142.PDB" /Gd /TC /analyze- /FC C:\USERS\ANTON\ADCS SPACE CENTER\CPP VS\SOFA\SRC\APIO.C
^C:\USERS\ANTON\ADCS SPACE CENTER\CPP VS\SOFA\SRC\APIO13.C
/c /ZI /JMC /nologo /W3 /WX- /diagnostics:column /sdl /Od /Oy- /D WIN32 /D _DEBUG /D _CONSOLE /D _UNICODE /D UNICODE /Gm- /EHsc /RTC1 /MDd /GS /fp:precise /permissive- /Zc:wchar_t /Zc:forScope /Zc:inline /Fo"DEBUG\\" /Fd"DEBUG\VC142.PDB" /Gd /TC /analyze- /FC C:\USERS\ANTON\ADCS SPACE CENTER\CPP VS\SOFA\SRC\APIO13.C
^C:\USERS\ANTON\ADCS SPACE CENTER\CPP VS\SOFA\SRC\ATCC13.C
/c /ZI /JMC /nologo /W3 /WX- /diagnostics:column /sdl /Od /Oy- /D WIN32 /D _DEBUG /D _CONSOLE /D _UNICODE /D UNICODE /Gm- /EHsc /RTC1 /MDd /GS /fp:precise /permissive- /Zc:wchar_t /Zc:forScope /Zc:inline /Fo"DEBUG\\" /Fd"DEBUG\VC142.PDB" /Gd /TC /analyze- /FC C:\USERS\ANTON\ADCS SPACE CENTER\CPP VS\SOFA\SRC\ATCC13.C
^C:\USERS\ANTON\ADCS SPACE CENTER\CPP VS\SOFA\SRC\ATCCQ.C
/c /ZI /JMC /nologo /W3 /WX- /diagnostics:column /sdl /Od /Oy- /D WIN32 /D _DEBUG /D _CONSOLE /D _UNICODE /D UNICODE /Gm- /EHsc /RTC1 /MDd /GS /fp:precise /permissive- /Zc:wchar_t /Zc:forScope /Zc:inline /Fo"DEBUG\\" /Fd"DEBUG\VC142.PDB" /Gd /TC /analyze- /FC C:\USERS\ANTON\ADCS SPACE CENTER\CPP VS\SOFA\SRC\ATCCQ.C
^C:\USERS\ANTON\ADCS SPACE CENTER\CPP VS\SOFA\SRC\ATCI13.C
/c /ZI /JMC /nologo /W3 /WX- /diagnostics:column /sdl /Od /Oy- /D WIN32 /D _DEBUG /D _CONSOLE /D _UNICODE /D UNICODE /Gm- /EHsc /RTC1 /MDd /GS /fp:precise /permissive- /Zc:wchar_t /Zc:forScope /Zc:inline /Fo"DEBUG\\" /Fd"DEBUG\VC142.PDB" /Gd /TC /analyze- /FC C:\USERS\ANTON\ADCS SPACE CENTER\CPP VS\SOFA\SRC\ATCI13.C
^C:\USERS\ANTON\ADCS SPACE CENTER\CPP VS\SOFA\SRC\ATCIQ.C
/c /ZI /JMC /nologo /W3 /WX- /diagnostics:column /sdl /Od /Oy- /D WIN32 /D _DEBUG /D _CONSOLE /D _UNICODE /D UNICODE /Gm- /EHsc /RTC1 /MDd /GS /fp:precise /permissive- /Zc:wchar_t /Zc:forScope /Zc:inline /Fo"DEBUG\\" /Fd"DEBUG\VC142.PDB" /Gd /TC /analyze- /FC C:\USERS\ANTON\ADCS SPACE CENTER\CPP VS\SOFA\SRC\ATCIQ.C
^C:\USERS\ANTON\ADCS SPACE CENTER\CPP VS\SOFA\SRC\ATCIQN.C
/c /ZI /JMC /nologo /W3 /WX- /diagnostics:column /sdl /Od /Oy- /D WIN32 /D _DEBUG /D _CONSOLE /D _UNICODE /D UNICODE /Gm- /EHsc /RTC1 /MDd /GS /fp:precise /permissive- /Zc:wchar_t /Zc:forScope /Zc:inline /Fo"DEBUG\\" /Fd"DEBUG\VC142.PDB" /Gd /TC /analyze- /FC C:\USERS\ANTON\ADCS SPACE CENTER\CPP VS\SOFA\SRC\ATCIQN.C
^C:\USERS\ANTON\ADCS SPACE CENTER\CPP VS\SOFA\SRC\ATCIQZ.C
/c /ZI /JMC /nologo /W3 /WX- /diagnostics:column /sdl /Od /Oy- /D WIN32 /D _DEBUG /D _CONSOLE /D _UNICODE /D UNICODE /Gm- /EHsc /RTC1 /MDd /GS /fp:precise /permissive- /Zc:wchar_t /Zc:forScope /Zc:inline /Fo"DEBUG\\" /Fd"DEBUG\VC142.PDB" /Gd /TC /analyze- /FC C:\USERS\ANTON\ADCS SPACE CENTER\CPP VS\SOFA\SRC\ATCIQZ.C
^C:\USERS\ANTON\ADCS SPACE CENTER\CPP VS\SOFA\SRC\ATCO13.C
/c /ZI /JMC /nologo /W3 /WX- /diagnostics:column /sdl /Od /Oy- /D WIN32 /D _DEBUG /D _CONSOLE /D _UNICODE /D UNICODE /Gm- /EHsc /RTC1 /MDd /GS /fp:precise /permissive- /Zc:wchar_t /Zc:forScope /Zc:inline /Fo"DEBUG\\" /Fd"DEBUG\VC142.PDB" /Gd /TC /analyze- /FC C:\USERS\ANTON\ADCS SPACE CENTER\CPP VS\SOFA\SRC\ATCO13.C
^C:\USERS\ANTON\ADCS SPACE CENTER\CPP VS\SOFA\SRC\ATIC13.C
/c /ZI /JMC /nologo /W3 /WX- /diagnostics:column /sdl /Od /Oy- /D WIN32 /D _DEBUG /D _CONSOLE /D _UNICODE /D UNICODE /Gm- /EHsc /RTC1 /MDd /GS /fp:precise /permissive- /Zc:wchar_t /Zc:forScope /Zc:inline /Fo"DEBUG\\" /Fd"DEBUG\VC142.PDB" /Gd /TC /analyze- /FC C:\USERS\ANTON\ADCS SPACE CENTER\CPP VS\SOFA\SRC\ATIC13.C
^C:\USERS\ANTON\ADCS SPACE CENTER\CPP VS\SOFA\SRC\ATICQ.C
/c /ZI /JMC /nologo /W3 /WX- /diagnostics:column /sdl /Od /Oy- /D WIN32 /D _DEBUG /D _CONSOLE /D _UNICODE /D UNICODE /Gm- /EHsc /RTC1 /MDd /GS /fp:precise /permissive- /Zc:wchar_t /Zc:forScope /Zc:inline /Fo"DEBUG\\" /Fd"DEBUG\VC142.PDB" /Gd /TC /analyze- /FC C:\USERS\ANTON\ADCS SPACE CENTER\CPP VS\SOFA\SRC\ATICQ.C
^C:\USERS\ANTON\ADCS SPACE CENTER\CPP VS\SOFA\SRC\ATICQN.C
/c /ZI /JMC /nologo /W3 /WX- /diagnostics:column /sdl /Od /Oy- /D WIN32 /D _DEBUG /D _CONSOLE /D _UNICODE /D UNICODE /Gm- /EHsc /RTC1 /MDd /GS /fp:precise /permissive- /Zc:wchar_t /Zc:forScope /Zc:inline /Fo"DEBUG\\" /Fd"DEBUG\VC142.PDB" /Gd /TC /analyze- /FC C:\USERS\ANTON\ADCS SPACE CENTER\CPP VS\SOFA\SRC\ATICQN.C
^C:\USERS\ANTON\ADCS SPACE CENTER\CPP VS\SOFA\SRC\ATIO13.C
/c /ZI /JMC /nologo /W3 /WX- /diagnostics:column /sdl /Od /Oy- /D WIN32 /D _DEBUG /D _CONSOLE /D _UNICODE /D UNICODE /Gm- /EHsc /RTC1 /MDd /GS /fp:precise /permissive- /Zc:wchar_t /Zc:forScope /Zc:inline /Fo"DEBUG\\" /Fd"DEBUG\VC142.PDB" /Gd /TC /analyze- /FC C:\USERS\ANTON\ADCS SPACE CENTER\CPP VS\SOFA\SRC\ATIO13.C
^C:\USERS\ANTON\ADCS SPACE CENTER\CPP VS\SOFA\SRC\ATIOQ.C
/c /ZI /JMC /nologo /W3 /WX- /diagnostics:column /sdl /Od /Oy- /D WIN32 /D _DEBUG /D _CONSOLE /D _UNICODE /D UNICODE /Gm- /EHsc /RTC1 /MDd /GS /fp:precise /permissive- /Zc:wchar_t /Zc:forScope /Zc:inline /Fo"DEBUG\\" /Fd"DEBUG\VC142.PDB" /Gd /TC /analyze- /FC C:\USERS\ANTON\ADCS SPACE CENTER\CPP VS\SOFA\SRC\ATIOQ.C
^C:\USERS\ANTON\ADCS SPACE CENTER\CPP VS\SOFA\SRC\ATOC13.C
/c /ZI /JMC /nologo /W3 /WX- /diagnostics:column /sdl /Od /Oy- /D WIN32 /D _DEBUG /D _CONSOLE /D _UNICODE /D UNICODE /Gm- /EHsc /RTC1 /MDd /GS /fp:precise /permissive- /Zc:wchar_t /Zc:forScope /Zc:inline /Fo"DEBUG\\" /Fd"DEBUG\VC142.PDB" /Gd /TC /analyze- /FC C:\USERS\ANTON\ADCS SPACE CENTER\CPP VS\SOFA\SRC\ATOC13.C
^C:\USERS\ANTON\ADCS SPACE CENTER\CPP VS\SOFA\SRC\ATOI13.C
/c /ZI /JMC /nologo /W3 /WX- /diagnostics:column /sdl /Od /Oy- /D WIN32 /D _DEBUG /D _CONSOLE /D _UNICODE /D UNICODE /Gm- /EHsc /RTC1 /MDd /GS /fp:precise /permissive- /Zc:wchar_t /Zc:forScope /Zc:inline /Fo"DEBUG\\" /Fd"DEBUG\VC142.PDB" /Gd /TC /analyze- /FC C:\USERS\ANTON\ADCS SPACE CENTER\CPP VS\SOFA\SRC\ATOI13.C
^C:\USERS\ANTON\ADCS SPACE CENTER\CPP VS\SOFA\SRC\ATOIQ.C
/c /ZI /JMC /nologo /W3 /WX- /diagnostics:column /sdl /Od /Oy- /D WIN32 /D _DEBUG /D _CONSOLE /D _UNICODE /D UNICODE /Gm- /EHsc /RTC1 /MDd /GS /fp:precise /permissive- /Zc:wchar_t /Zc:forScope /Zc:inline /Fo"DEBUG\\" /Fd"DEBUG\VC142.PDB" /Gd /TC /analyze- /FC C:\USERS\ANTON\ADCS SPACE CENTER\CPP VS\SOFA\SRC\ATOIQ.C
^C:\USERS\ANTON\ADCS SPACE CENTER\CPP VS\SOFA\SRC\BI00.C
/c /ZI /JMC /nologo /W3 /WX- /diagnostics:column /sdl /Od /Oy- /D WIN32 /D _DEBUG /D _CONSOLE /D _UNICODE /D UNICODE /Gm- /EHsc /RTC1 /MDd /GS /fp:precise /permissive- /Zc:wchar_t /Zc:forScope /Zc:inline /Fo"DEBUG\\" /Fd"DEBUG\VC142.PDB" /Gd /TC /analyze- /FC C:\USERS\ANTON\ADCS SPACE CENTER\CPP VS\SOFA\SRC\BI00.C
^C:\USERS\ANTON\ADCS SPACE CENTER\CPP VS\SOFA\SRC\BP00.C
/c /ZI /JMC /nologo /W3 /WX- /diagnostics:column /sdl /Od /Oy- /D WIN32 /D _DEBUG /D _CONSOLE /D _UNICODE /D UNICODE /Gm- /EHsc /RTC1 /MDd /GS /fp:precise /permissive- /Zc:wchar_t /Zc:forScope /Zc:inline /Fo"DEBUG\\" /Fd"DEBUG\VC142.PDB" /Gd /TC /analyze- /FC C:\USERS\ANTON\ADCS SPACE CENTER\CPP VS\SOFA\SRC\BP00.C
^C:\USERS\ANTON\ADCS SPACE CENTER\CPP VS\SOFA\SRC\BP06.C
/c /ZI /JMC /nologo /W3 /WX- /diagnostics:column /sdl /Od /Oy- /D WIN32 /D _DEBUG /D _CONSOLE /D _UNICODE /D UNICODE /Gm- /EHsc /RTC1 /MDd /GS /fp:precise /permissive- /Zc:wchar_t /Zc:forScope /Zc:inline /Fo"DEBUG\\" /Fd"DEBUG\VC142.PDB" /Gd /TC /analyze- /FC C:\USERS\ANTON\ADCS SPACE CENTER\CPP VS\SOFA\SRC\BP06.C
^C:\USERS\ANTON\ADCS SPACE CENTER\CPP VS\SOFA\SRC\BPN2XY.C
/c /ZI /JMC /nologo /W3 /WX- /diagnostics:column /sdl /Od /Oy- /D WIN32 /D _DEBUG /D _CONSOLE /D _UNICODE /D UNICODE /Gm- /EHsc /RTC1 /MDd /GS /fp:precise /permissive- /Zc:wchar_t /Zc:forScope /Zc:inline /Fo"DEBUG\\" /Fd"DEBUG\VC142.PDB" /Gd /TC /analyze- /FC C:\USERS\ANTON\ADCS SPACE CENTER\CPP VS\SOFA\SRC\BPN2XY.C
^C:\USERS\ANTON\ADCS SPACE CENTER\CPP VS\SOFA\SRC\C2I00A.C
/c /ZI /JMC /nologo /W3 /WX- /diagnostics:column /sdl /Od /Oy- /D WIN32 /D _DEBUG /D _CONSOLE /D _UNICODE /D UNICODE /Gm- /EHsc /RTC1 /MDd /GS /fp:precise /permissive- /Zc:wchar_t /Zc:forScope /Zc:inline /Fo"DEBUG\\" /Fd"DEBUG\VC142.PDB" /Gd /TC /analyze- /FC C:\USERS\ANTON\ADCS SPACE CENTER\CPP VS\SOFA\SRC\C2I00A.C
^C:\USERS\ANTON\ADCS SPACE CENTER\CPP VS\SOFA\SRC\C2I00B.C
/c /ZI /JMC /nologo /W3 /WX- /diagnostics:column /sdl /Od /Oy- /D WIN32 /D _DEBUG /D _CONSOLE /D _UNICODE /D UNICODE /Gm- /EHsc /RTC1 /MDd /GS /fp:precise /permissive- /Zc:wchar_t /Zc:forScope /Zc:inline /Fo"DEBUG\\" /Fd"DEBUG\VC142.PDB" /Gd /TC /analyze- /FC C:\USERS\ANTON\ADCS SPACE CENTER\CPP VS\SOFA\SRC\C2I00B.C
^C:\USERS\ANTON\ADCS SPACE CENTER\CPP VS\SOFA\SRC\C2I06A.C
/c /ZI /JMC /nologo /W3 /WX- /diagnostics:column /sdl /Od /Oy- /D WIN32 /D _DEBUG /D _CONSOLE /D _UNICODE /D UNICODE /Gm- /EHsc /RTC1 /MDd /GS /fp:precise /permissive- /Zc:wchar_t /Zc:forScope /Zc:inline /Fo"DEBUG\\" /Fd"DEBUG\VC142.PDB" /Gd /TC /analyze- /FC C:\USERS\ANTON\ADCS SPACE CENTER\CPP VS\SOFA\SRC\C2I06A.C
^C:\USERS\ANTON\ADCS SPACE CENTER\CPP VS\SOFA\SRC\C2IBPN.C
/c /ZI /JMC /nologo /W3 /WX- /diagnostics:column /sdl /Od /Oy- /D WIN32 /D _DEBUG /D _CONSOLE /D _UNICODE /D UNICODE /Gm- /EHsc /RTC1 /MDd /GS /fp:precise /permissive- /Zc:wchar_t /Zc:forScope /Zc:inline /Fo"DEBUG\\" /Fd"DEBUG\VC142.PDB" /Gd /TC /analyze- /FC C:\USERS\ANTON\ADCS SPACE CENTER\CPP VS\SOFA\SRC\C2IBPN.C
^C:\USERS\ANTON\ADCS SPACE CENTER\CPP VS\SOFA\SRC\C2IXY.C
/c /ZI /JMC /nologo /W3 /WX- /diagnostics:column /sdl /Od /Oy- /D WIN32 /D _DEBUG /D _CONSOLE /D _UNICODE /D UNICODE /Gm- /EHsc /RTC1 /MDd /GS /fp:precise /permissive- /Zc:wchar_t /Zc:forScope /Zc:inline /Fo"DEBUG\\" /Fd"DEBUG\VC142.PDB" /Gd /TC /analyze- /FC C:\USERS\ANTON\ADCS SPACE CENTER\CPP VS\SOFA\SRC\C2IXY.C
^C:\USERS\ANTON\ADCS SPACE CENTER\CPP VS\SOFA\SRC\C2IXYS.C
/c /ZI /JMC /nologo /W3 /WX- /diagnostics:column /sdl /Od /Oy- /D WIN32 /D _DEBUG /D _CONSOLE /D _UNICODE /D UNICODE /Gm- /EHsc /RTC1 /MDd /GS /fp:precise /permissive- /Zc:wchar_t /Zc:forScope /Zc:inline /Fo"DEBUG\\" /Fd"DEBUG\VC142.PDB" /Gd /TC /analyze- /FC C:\USERS\ANTON\ADCS SPACE CENTER\CPP VS\SOFA\SRC\C2IXYS.C
^C:\USERS\ANTON\ADCS SPACE CENTER\CPP VS\SOFA\SRC\C2S.C
/c /ZI /JMC /nologo /W3 /WX- /diagnostics:column /sdl /Od /Oy- /D WIN32 /D _DEBUG /D _CONSOLE /D _UNICODE /D UNICODE /Gm- /EHsc /RTC1 /MDd /GS /fp:precise /permissive- /Zc:wchar_t /Zc:forScope /Zc:inline /Fo"DEBUG\\" /Fd"DEBUG\VC142.PDB" /Gd /TC /analyze- /FC C:\USERS\ANTON\ADCS SPACE CENTER\CPP VS\SOFA\SRC\C2S.C
^C:\USERS\ANTON\ADCS SPACE CENTER\CPP VS\SOFA\SRC\C2T00A.C
/c /ZI /JMC /nologo /W3 /WX- /diagnostics:column /sdl /Od /Oy- /D WIN32 /D _DEBUG /D _CONSOLE /D _UNICODE /D UNICODE /Gm- /EHsc /RTC1 /MDd /GS /fp:precise /permissive- /Zc:wchar_t /Zc:forScope /Zc:inline /Fo"DEBUG\\" /Fd"DEBUG\VC142.PDB" /Gd /TC /analyze- /FC C:\USERS\ANTON\ADCS SPACE CENTER\CPP VS\SOFA\SRC\C2T00A.C
^C:\USERS\ANTON\ADCS SPACE CENTER\CPP VS\SOFA\SRC\C2T00B.C
/c /ZI /JMC /nologo /W3 /WX- /diagnostics:column /sdl /Od /Oy- /D WIN32 /D _DEBUG /D _CONSOLE /D _UNICODE /D UNICODE /Gm- /EHsc /RTC1 /MDd /GS /fp:precise /permissive- /Zc:wchar_t /Zc:forScope /Zc:inline /Fo"DEBUG\\" /Fd"DEBUG\VC142.PDB" /Gd /TC /analyze- /FC C:\USERS\ANTON\ADCS SPACE CENTER\CPP VS\SOFA\SRC\C2T00B.C
^C:\USERS\ANTON\ADCS SPACE CENTER\CPP VS\SOFA\SRC\C2T06A.C
/c /ZI /JMC /nologo /W3 /WX- /diagnostics:column /sdl /Od /Oy- /D WIN32 /D _DEBUG /D _CONSOLE /D _UNICODE /D UNICODE /Gm- /EHsc /RTC1 /MDd /GS /fp:precise /permissive- /Zc:wchar_t /Zc:forScope /Zc:inline /Fo"DEBUG\\" /Fd"DEBUG\VC142.PDB" /Gd /TC /analyze- /FC C:\USERS\ANTON\ADCS SPACE CENTER\CPP VS\SOFA\SRC\C2T06A.C
^C:\USERS\ANTON\ADCS SPACE CENTER\CPP VS\SOFA\SRC\C2TCIO.C
/c /ZI /JMC /nologo /W3 /WX- /diagnostics:column /sdl /Od /Oy- /D WIN32 /D _DEBUG /D _CONSOLE /D _UNICODE /D UNICODE /Gm- /EHsc /RTC1 /MDd /GS /fp:precise /permissive- /Zc:wchar_t /Zc:forScope /Zc:inline /Fo"DEBUG\\" /Fd"DEBUG\VC142.PDB" /Gd /TC /analyze- /FC C:\USERS\ANTON\ADCS SPACE CENTER\CPP VS\SOFA\SRC\C2TCIO.C
^C:\USERS\ANTON\ADCS SPACE CENTER\CPP VS\SOFA\SRC\C2TEQX.C
/c /ZI /JMC /nologo /W3 /WX- /diagnostics:column /sdl /Od /Oy- /D WIN32 /D _DEBUG /D _CONSOLE /D _UNICODE /D UNICODE /Gm- /EHsc /RTC1 /MDd /GS /fp:precise /permissive- /Zc:wchar_t /Zc:forScope /Zc:inline /Fo"DEBUG\\" /Fd"DEBUG\VC142.PDB" /Gd /TC /analyze- /FC C:\USERS\ANTON\ADCS SPACE CENTER\CPP VS\SOFA\SRC\C2TEQX.C
^C:\USERS\ANTON\ADCS SPACE CENTER\CPP VS\SOFA\SRC\C2TPE.C
/c /ZI /JMC /nologo /W3 /WX- /diagnostics:column /sdl /Od /Oy- /D WIN32 /D _DEBUG /D _CONSOLE /D _UNICODE /D UNICODE /Gm- /EHsc /RTC1 /MDd /GS /fp:precise /permissive- /Zc:wchar_t /Zc:forScope /Zc:inline /Fo"DEBUG\\" /Fd"DEBUG\VC142.PDB" /Gd /TC /analyze- /FC C:\USERS\ANTON\ADCS SPACE CENTER\CPP VS\SOFA\SRC\C2TPE.C
^C:\USERS\ANTON\ADCS SPACE CENTER\CPP VS\SOFA\SRC\C2TXY.C
/c /ZI /JMC /nologo /W3 /WX- /diagnostics:column /sdl /Od /Oy- /D WIN32 /D _DEBUG /D _CONSOLE /D _UNICODE /D UNICODE /Gm- /EHsc /RTC1 /MDd /GS /fp:precise /permissive- /Zc:wchar_t /Zc:forScope /Zc:inline /Fo"DEBUG\\" /Fd"DEBUG\VC142.PDB" /Gd /TC /analyze- /FC C:\USERS\ANTON\ADCS SPACE CENTER\CPP VS\SOFA\SRC\C2TXY.C
^C:\USERS\ANTON\ADCS SPACE CENTER\CPP VS\SOFA\SRC\CAL2JD.C
/c /ZI /JMC /nologo /W3 /WX- /diagnostics:column /sdl /Od /Oy- /D WIN32 /D _DEBUG /D _CONSOLE /D _UNICODE /D UNICODE /Gm- /EHsc /RTC1 /MDd /GS /fp:precise /permissive- /Zc:wchar_t /Zc:forScope /Zc:inline /Fo"DEBUG\\" /Fd"DEBUG\VC142.PDB" /Gd /TC /analyze- /FC C:\USERS\ANTON\ADCS SPACE CENTER\CPP VS\SOFA\SRC\CAL2JD.C
^C:\USERS\ANTON\ADCS SPACE CENTER\CPP VS\SOFA\SRC\CP.C
/c /ZI /JMC /nologo /W3 /WX- /diagnostics:column /sdl /Od /Oy- /D WIN32 /D _DEBUG /D _CONSOLE /D _UNICODE /D UNICODE /Gm- /EHsc /RTC1 /MDd /GS /fp:precise /permissive- /Zc:wchar_t /Zc:forScope /Zc:inline /Fo"DEBUG\\" /Fd"DEBUG\VC142.PDB" /Gd /TC /analyze- /FC C:\USERS\ANTON\ADCS SPACE CENTER\CPP VS\SOFA\SRC\CP.C
^C:\USERS\ANTON\ADCS SPACE CENTER\CPP VS\SOFA\SRC\CPV.C
/c /ZI /JMC /nologo /W3 /WX- /diagnostics:column /sdl /Od /Oy- /D WIN32 /D _DEBUG /D _CONSOLE /D _UNICODE /D UNICODE /Gm- /EHsc /RTC1 /MDd /GS /fp:precise /permissive- /Zc:wchar_t /Zc:forScope /Zc:inline /Fo"DEBUG\\" /Fd"DEBUG\VC142.PDB" /Gd /TC /analyze- /FC C:\USERS\ANTON\ADCS SPACE CENTER\CPP VS\SOFA\SRC\CPV.C
^C:\USERS\ANTON\ADCS SPACE CENTER\CPP VS\SOFA\SRC\CR.C
/c /ZI /JMC /nologo /W3 /WX- /diagnostics:column /sdl /Od /Oy- /D WIN32 /D _DEBUG /D _CONSOLE /D _UNICODE /D UNICODE /Gm- /EHsc /RTC1 /MDd /GS /fp:precise /permissive- /Zc:wchar_t /Zc:forScope /Zc:inline /Fo"DEBUG\\" /Fd"DEBUG\VC142.PDB" /Gd /TC /analyze- /FC C:\USERS\ANTON\ADCS SPACE CENTER\CPP VS\SOFA\SRC\CR.C
^C:\USERS\ANTON\ADCS SPACE CENTER\CPP VS\SOFA\SRC\D2DTF.C
/c /ZI /JMC /nologo /W3 /WX- /diagnostics:column /sdl /Od /Oy- /D WIN32 /D _DEBUG /D _CONSOLE /D _UNICODE /D UNICODE /Gm- /EHsc /RTC1 /MDd /GS /fp:precise /permissive- /Zc:wchar_t /Zc:forScope /Zc:inline /Fo"DEBUG\\" /Fd"DEBUG\VC142.PDB" /Gd /TC /analyze- /FC C:\USERS\ANTON\ADCS SPACE CENTER\CPP VS\SOFA\SRC\D2DTF.C
^C:\USERS\ANTON\ADCS SPACE CENTER\CPP VS\SOFA\SRC\D2TF.C
/c /ZI /JMC /nologo /W3 /WX- /diagnostics:column /sdl /Od /Oy- /D WIN32 /D _DEBUG /D _CONSOLE /D _UNICODE /D UNICODE /Gm- /EHsc /RTC1 /MDd /GS /fp:precise /permissive- /Zc:wchar_t /Zc:forScope /Zc:inline /Fo"DEBUG\\" /Fd"DEBUG\VC142.PDB" /Gd /TC /analyze- /FC C:\USERS\ANTON\ADCS SPACE CENTER\CPP VS\SOFA\SRC\D2TF.C
^C:\USERS\ANTON\ADCS SPACE CENTER\CPP VS\SOFA\SRC\DAT.C
/c /ZI /JMC /nologo /W3 /WX- /diagnostics:column /sdl /Od /Oy- /D WIN32 /D _DEBUG /D _CONSOLE /D _UNICODE /D UNICODE /Gm- /EHsc /RTC1 /MDd /GS /fp:precise /permissive- /Zc:wchar_t /Zc:forScope /Zc:inline /Fo"DEBUG\\" /Fd"DEBUG\VC142.PDB" /Gd /TC /analyze- /FC C:\USERS\ANTON\ADCS SPACE CENTER\CPP VS\SOFA\SRC\DAT.C
^C:\USERS\ANTON\ADCS SPACE CENTER\CPP VS\SOFA\SRC\DTDB.C
/c /ZI /JMC /nologo /W3 /WX- /diagnostics:column /sdl /Od /Oy- /D WIN32 /D _DEBUG /D _CONSOLE /D _UNICODE /D UNICODE /Gm- /EHsc /RTC1 /MDd /GS /fp:precise /permissive- /Zc:wchar_t /Zc:forScope /Zc:inline /Fo"DEBUG\\" /Fd"DEBUG\VC142.PDB" /Gd /TC /analyze- /FC C:\USERS\ANTON\ADCS SPACE CENTER\CPP VS\SOFA\SRC\DTDB.C
^C:\USERS\ANTON\ADCS SPACE CENTER\CPP VS\SOFA\SRC\DTF2D.C
/c /ZI /JMC /nologo /W3 /WX- /diagnostics:column /sdl /Od /Oy- /D WIN32 /D _DEBUG /D _CONSOLE /D _UNICODE /D UNICODE /Gm- /EHsc /RTC1 /MDd /GS /fp:precise /permissive- /Zc:wchar_t /Zc:forScope /Zc:inline /Fo"DEBUG\\" /Fd"DEBUG\VC142.PDB" /Gd /TC /analyze- /FC C:\USERS\ANTON\ADCS SPACE CENTER\CPP VS\SOFA\SRC\DTF2D.C
^C:\USERS\ANTON\ADCS SPACE CENTER\CPP VS\SOFA\SRC\ECEQ06.C
/c /ZI /JMC /nologo /W3 /WX- /diagnostics:column /sdl /Od /Oy- /D WIN32 /D _DEBUG /D _CONSOLE /D _UNICODE /D UNICODE /Gm- /EHsc /RTC1 /MDd /GS /fp:precise /permissive- /Zc:wchar_t /Zc:forScope /Zc:inline /Fo"DEBUG\\" /Fd"DEBUG\VC142.PDB" /Gd /TC /analyze- /FC C:\USERS\ANTON\ADCS SPACE CENTER\CPP VS\SOFA\SRC\ECEQ06.C
^C:\USERS\ANTON\ADCS SPACE CENTER\CPP VS\SOFA\SRC\ECM06.C
/c /ZI /JMC /nologo /W3 /WX- /diagnostics:column /sdl /Od /Oy- /D WIN32 /D _DEBUG /D _CONSOLE /D _UNICODE /D UNICODE /Gm- /EHsc /RTC1 /MDd /GS /fp:precise /permissive- /Zc:wchar_t /Zc:forScope /Zc:inline /Fo"DEBUG\\" /Fd"DEBUG\VC142.PDB" /Gd /TC /analyze- /FC C:\USERS\ANTON\ADCS SPACE CENTER\CPP VS\SOFA\SRC\ECM06.C
^C:\USERS\ANTON\ADCS SPACE CENTER\CPP VS\SOFA\SRC\EE00.C
/c /ZI /JMC /nologo /W3 /WX- /diagnostics:column /sdl /Od /Oy- /D WIN32 /D _DEBUG /D _CONSOLE /D _UNICODE /D UNICODE /Gm- /EHsc /RTC1 /MDd /GS /fp:precise /permissive- /Zc:wchar_t /Zc:forScope /Zc:inline /Fo"DEBUG\\" /Fd"DEBUG\VC142.PDB" /Gd /TC /analyze- /FC C:\USERS\ANTON\ADCS SPACE CENTER\CPP VS\SOFA\SRC\EE00.C
^C:\USERS\ANTON\ADCS SPACE CENTER\CPP VS\SOFA\SRC\EE00A.C
/c /ZI /JMC /nologo /W3 /WX- /diagnostics:column /sdl /Od /Oy- /D WIN32 /D _DEBUG /D _CONSOLE /D _UNICODE /D UNICODE /Gm- /EHsc /RTC1 /MDd /GS /fp:precise /permissive- /Zc:wchar_t /Zc:forScope /Zc:inline /Fo"DEBUG\\" /Fd"DEBUG\VC142.PDB" /Gd /TC /analyze- /FC C:\USERS\ANTON\ADCS SPACE CENTER\CPP VS\SOFA\SRC\EE00A.C
^C:\USERS\ANTON\ADCS SPACE CENTER\CPP VS\SOFA\SRC\EE00B.C
/c /ZI /JMC /nologo /W3 /WX- /diagnostics:column /sdl /Od /Oy- /D WIN32 /D _DEBUG /D _CONSOLE /D _UNICODE /D UNICODE /Gm- /EHsc /RTC1 /MDd /GS /fp:precise /permissive- /Zc:wchar_t /Zc:forScope /Zc:inline /Fo"DEBUG\\" /Fd"DEBUG\VC142.PDB" /Gd /TC /analyze- /FC C:\USERS\ANTON\ADCS SPACE CENTER\CPP VS\SOFA\SRC\EE00B.C
^C:\USERS\ANTON\ADCS SPACE CENTER\CPP VS\SOFA\SRC\EE06A.C
/c /ZI /JMC /nologo /W3 /WX- /diagnostics:column /sdl /Od /Oy- /D WIN32 /D _DEBUG /D _CONSOLE /D _UNICODE /D UNICODE /Gm- /EHsc /RTC1 /MDd /GS /fp:precise /permissive- /Zc:wchar_t /Zc:forScope /Zc:inline /Fo"DEBUG\\" /Fd"DEBUG\VC142.PDB" /Gd /TC /analyze- /FC C:\USERS\ANTON\ADCS SPACE CENTER\CPP VS\SOFA\SRC\EE06A.C
^C:\USERS\ANTON\ADCS SPACE CENTER\CPP VS\SOFA\SRC\EECT00.C
/c /ZI /JMC /nologo /W3 /WX- /diagnostics:column /sdl /Od /Oy- /D WIN32 /D _DEBUG /D _CONSOLE /D _UNICODE /D UNICODE /Gm- /EHsc /RTC1 /MDd /GS /fp:precise /permissive- /Zc:wchar_t /Zc:forScope /Zc:inline /Fo"DEBUG\\" /Fd"DEBUG\VC142.PDB" /Gd /TC /analyze- /FC C:\USERS\ANTON\ADCS SPACE CENTER\CPP VS\SOFA\SRC\EECT00.C
^C:\USERS\ANTON\ADCS SPACE CENTER\CPP VS\SOFA\SRC\EFORM.C
/c /ZI /JMC /nologo /W3 /WX- /diagnostics:column /sdl /Od /Oy- /D WIN32 /D _DEBUG /D _CONSOLE /D _UNICODE /D UNICODE /Gm- /EHsc /RTC1 /MDd /GS /fp:precise /permissive- /Zc:wchar_t /Zc:forScope /Zc:inline /Fo"DEBUG\\" /Fd"DEBUG\VC142.PDB" /Gd /TC /analyze- /FC C:\USERS\ANTON\ADCS SPACE CENTER\CPP VS\SOFA\SRC\EFORM.C
^C:\USERS\ANTON\ADCS SPACE CENTER\CPP VS\SOFA\SRC\EO06A.C
/c /ZI /JMC /nologo /W3 /WX- /diagnostics:column /sdl /Od /Oy- /D WIN32 /D _DEBUG /D _CONSOLE /D _UNICODE /D UNICODE /Gm- /EHsc /RTC1 /MDd /GS /fp:precise /permissive- /Zc:wchar_t /Zc:forScope /Zc:inline /Fo"DEBUG\\" /Fd"DEBUG\VC142.PDB" /Gd /TC /analyze- /FC C:\USERS\ANTON\ADCS SPACE CENTER\CPP VS\SOFA\SRC\EO06A.C
^C:\USERS\ANTON\ADCS SPACE CENTER\CPP VS\SOFA\SRC\EORS.C
/c /ZI /JMC /nologo /W3 /WX- /diagnostics:column /sdl /Od /Oy- /D WIN32 /D _DEBUG /D _CONSOLE /D _UNICODE /D UNICODE /Gm- /EHsc /RTC1 /MDd /GS /fp:precise /permissive- /Zc:wchar_t /Zc:forScope /Zc:inline /Fo"DEBUG\\" /Fd"DEBUG\VC142.PDB" /Gd /TC /analyze- /FC C:\USERS\ANTON\ADCS SPACE CENTER\CPP VS\SOFA\SRC\EORS.C
^C:\USERS\ANTON\ADCS SPACE CENTER\CPP VS\SOFA\SRC\EPB.C
/c /ZI /JMC /nologo /W3 /WX- /diagnostics:column /sdl /Od /Oy- /D WIN32 /D _DEBUG /D _CONSOLE /D _UNICODE /D UNICODE /Gm- /EHsc /RTC1 /MDd /GS /fp:precise /permissive- /Zc:wchar_t /Zc:forScope /Zc:inline /Fo"DEBUG\\" /Fd"DEBUG\VC142.PDB" /Gd /TC /analyze- /FC C:\USERS\ANTON\ADCS SPACE CENTER\CPP VS\SOFA\SRC\EPB.C
^C:\USERS\ANTON\ADCS SPACE CENTER\CPP VS\SOFA\SRC\EPB2JD.C
/c /ZI /JMC /nologo /W3 /WX- /diagnostics:column /sdl /Od /Oy- /D WIN32 /D _DEBUG /D _CONSOLE /D _UNICODE /D UNICODE /Gm- /EHsc /RTC1 /MDd /GS /fp:precise /permissive- /Zc:wchar_t /Zc:forScope /Zc:inline /Fo"DEBUG\\" /Fd"DEBUG\VC142.PDB" /Gd /TC /analyze- /FC C:\USERS\ANTON\ADCS SPACE CENTER\CPP VS\SOFA\SRC\EPB2JD.C
^C:\USERS\ANTON\ADCS SPACE CENTER\CPP VS\SOFA\SRC\EPJ.C
/c /ZI /JMC /nologo /W3 /WX- /diagnostics:column /sdl /Od /Oy- /D WIN32 /D _DEBUG /D _CONSOLE /D _UNICODE /D UNICODE /Gm- /EHsc /RTC1 /MDd /GS /fp:precise /permissive- /Zc:wchar_t /Zc:forScope /Zc:inline /Fo"DEBUG\\" /Fd"DEBUG\VC142.PDB" /Gd /TC /analyze- /FC C:\USERS\ANTON\ADCS SPACE CENTER\CPP VS\SOFA\SRC\EPJ.C
^C:\USERS\ANTON\ADCS SPACE CENTER\CPP VS\SOFA\SRC\EPJ2JD.C
/c /ZI /JMC /nologo /W3 /WX- /diagnostics:column /sdl /Od /Oy- /D WIN32 /D _DEBUG /D _CONSOLE /D _UNICODE /D UNICODE /Gm- /EHsc /RTC1 /MDd /GS /fp:precise /permissive- /Zc:wchar_t /Zc:forScope /Zc:inline /Fo"DEBUG\\" /Fd"DEBUG\VC142.PDB" /Gd /TC /analyze- /FC C:\USERS\ANTON\ADCS SPACE CENTER\CPP VS\SOFA\SRC\EPJ2JD.C
^C:\USERS\ANTON\ADCS SPACE CENTER\CPP VS\SOFA\SRC\EPV00.C
/c /ZI /JMC /nologo /W3 /WX- /diagnostics:column /sdl /Od /Oy- /D WIN32 /D _DEBUG /D _CONSOLE /D _UNICODE /D UNICODE /Gm- /EHsc /RTC1 /MDd /GS /fp:precise /permissive- /Zc:wchar_t /Zc:forScope /Zc:inline /Fo"DEBUG\\" /Fd"DEBUG\VC142.PDB" /Gd /TC /analyze- /FC C:\USERS\ANTON\ADCS SPACE CENTER\CPP VS\SOFA\SRC\EPV00.C
^C:\USERS\ANTON\ADCS SPACE CENTER\CPP VS\SOFA\SRC\EQEC06.C
/c /ZI /JMC /nologo /W3 /WX- /diagnostics:column /sdl /Od /Oy- /D WIN32 /D _DEBUG /D _CONSOLE /D _UNICODE /D UNICODE /Gm- /EHsc /RTC1 /MDd /GS /fp:precise /permissive- /Zc:wchar_t /Zc:forScope /Zc:inline /Fo"DEBUG\\" /Fd"DEBUG\VC142.PDB" /Gd /TC /analyze- /FC C:\USERS\ANTON\ADCS SPACE CENTER\CPP VS\SOFA\SRC\EQEC06.C
^C:\USERS\ANTON\ADCS SPACE CENTER\CPP VS\SOFA\SRC\EQEQ94.C
/c /ZI /JMC /nologo /W3 /WX- /diagnostics:column /sdl /Od /Oy- /D WIN32 /D _DEBUG /D _CONSOLE /D _UNICODE /D UNICODE /Gm- /EHsc /RTC1 /MDd /GS /fp:precise /permissive- /Zc:wchar_t /Zc:forScope /Zc:inline /Fo"DEBUG\\" /Fd"DEBUG\VC142.PDB" /Gd /TC /analyze- /FC C:\USERS\ANTON\ADCS SPACE CENTER\CPP VS\SOFA\SRC\EQEQ94.C
^C:\USERS\ANTON\ADCS SPACE CENTER\CPP VS\SOFA\SRC\ERA00.C
/c /ZI /JMC /nologo /W3 /WX- /diagnostics:column /sdl /Od /Oy- /D WIN32 /D _DEBUG /D _CONSOLE /D _UNICODE /D UNICODE /Gm- /EHsc /RTC1 /MDd /GS /fp:precise /permissive- /Zc:wchar_t /Zc:forScope /Zc:inline /Fo"DEBUG\\" /Fd"DEBUG\VC142.PDB" /Gd /TC /analyze- /FC C:\USERS\ANTON\ADCS SPACE CENTER\CPP VS\SOFA\SRC\ERA00.C
^C:\USERS\ANTON\ADCS SPACE CENTER\CPP VS\SOFA\SRC\FAD03.C
/c /ZI /JMC /nologo /W3 /WX- /diagnostics:column /sdl /Od /Oy- /D WIN32 /D _DEBUG /D _CONSOLE /D _UNICODE /D UNICODE /Gm- /EHsc /RTC1 /MDd /GS /fp:precise /permissive- /Zc:wchar_t /Zc:forScope /Zc:inline /Fo"DEBUG\\" /Fd"DEBUG\VC142.PDB" /Gd /TC /analyze- /FC C:\USERS\ANTON\ADCS SPACE CENTER\CPP VS\SOFA\SRC\FAD03.C
^C:\USERS\ANTON\ADCS SPACE CENTER\CPP VS\SOFA\SRC\FAE03.C
/c /ZI /JMC /nologo /W3 /WX- /diagnostics:column /sdl /Od /Oy- /D WIN32 /D _DEBUG /D _CONSOLE /D _UNICODE /D UNICODE /Gm- /EHsc /RTC1 /MDd /GS /fp:precise /permissive- /Zc:wchar_t /Zc:forScope /Zc:inline /Fo"DEBUG\\" /Fd"DEBUG\VC142.PDB" /Gd /TC /analyze- /FC C:\USERS\ANTON\ADCS SPACE CENTER\CPP VS\SOFA\SRC\FAE03.C
^C:\USERS\ANTON\ADCS SPACE CENTER\CPP VS\SOFA\SRC\FAF03.C
/c /ZI /JMC /nologo /W3 /WX- /diagnostics:column /sdl /Od /Oy- /D WIN32 /D _DEBUG /D _CONSOLE /D _UNICODE /D UNICODE /Gm- /EHsc /RTC1 /MDd /GS /fp:precise /permissive- /Zc:wchar_t /Zc:forScope /Zc:inline /Fo"DEBUG\\" /Fd"DEBUG\VC142.PDB" /Gd /TC /analyze- /FC C:\USERS\ANTON\ADCS SPACE CENTER\CPP VS\SOFA\SRC\FAF03.C
^C:\USERS\ANTON\ADCS SPACE CENTER\CPP VS\SOFA\SRC\FAJU03.C
/c /ZI /JMC /nologo /W3 /WX- /diagnostics:column /sdl /Od /Oy- /D WIN32 /D _DEBUG /D _CONSOLE /D _UNICODE /D UNICODE /Gm- /EHsc /RTC1 /MDd /GS /fp:precise /permissive- /Zc:wchar_t /Zc:forScope /Zc:inline /Fo"DEBUG\\" /Fd"DEBUG\VC142.PDB" /Gd /TC /analyze- /FC C:\USERS\ANTON\ADCS SPACE CENTER\CPP VS\SOFA\SRC\FAJU03.C
^C:\USERS\ANTON\ADCS SPACE CENTER\CPP VS\SOFA\SRC\FAL03.C
/c /ZI /JMC /nologo /W3 /WX- /diagnostics:column /sdl /Od /Oy- /D WIN32 /D _DEBUG /D _CONSOLE /D _UNICODE /D UNICODE /Gm- /EHsc /RTC1 /MDd /GS /fp:precise /permissive- /Zc:wchar_t /Zc:forScope /Zc:inline /Fo"DEBUG\\" /Fd"DEBUG\VC142.PDB" /Gd /TC /analyze- /FC C:\USERS\ANTON\ADCS SPACE CENTER\CPP VS\SOFA\SRC\FAL03.C
^C:\USERS\ANTON\ADCS SPACE CENTER\CPP VS\SOFA\SRC\FALP03.C
/c /ZI /JMC /nologo /W3 /WX- /diagnostics:column /sdl /Od /Oy- /D WIN32 /D _DEBUG /D _CONSOLE /D _UNICODE /D UNICODE /Gm- /EHsc /RTC1 /MDd /GS /fp:precise /permissive- /Zc:wchar_t /Zc:forScope /Zc:inline /Fo"DEBUG\\" /Fd"DEBUG\VC142.PDB" /Gd /TC /analyze- /FC C:\USERS\ANTON\ADCS SPACE CENTER\CPP VS\SOFA\SRC\FALP03.C
^C:\USERS\ANTON\ADCS SPACE CENTER\CPP VS\SOFA\SRC\FAMA03.C
/c /ZI /JMC /nologo /W3 /WX- /diagnostics:column /sdl /Od /Oy- /D WIN32 /D _DEBUG /D _CONSOLE /D _UNICODE /D UNICODE /Gm- /EHsc /RTC1 /MDd /GS /fp:precise /permissive- /Zc:wchar_t /Zc:forScope /Zc:inline /Fo"DEBUG\\" /Fd"DEBUG\VC142.PDB" /Gd /TC /analyze- /FC C:\USERS\ANTON\ADCS SPACE CENTER\CPP VS\SOFA\SRC\FAMA03.C
^C:\USERS\ANTON\ADCS SPACE CENTER\CPP VS\SOFA\SRC\FAME03.C
/c /ZI /JMC /nologo /W3 /WX- /diagnostics:column /sdl /Od /Oy- /D WIN32 /D _DEBUG /D _CONSOLE /D _UNICODE /D UNICODE /Gm- /EHsc /RTC1 /MDd /GS /fp:precise /permissive- /Zc:wchar_t /Zc:forScope /Zc:inline /Fo"DEBUG\\" /Fd"DEBUG\VC142.PDB" /Gd /TC /analyze- /FC C:\USERS\ANTON\ADCS SPACE CENTER\CPP VS\SOFA\SRC\FAME03.C
^C:\USERS\ANTON\ADCS SPACE CENTER\CPP VS\SOFA\SRC\FANE03.C
/c /ZI /JMC /nologo /W3 /WX- /diagnostics:column /sdl /Od /Oy- /D WIN32 /D _DEBUG /D _CONSOLE /D _UNICODE /D UNICODE /Gm- /EHsc /RTC1 /MDd /GS /fp:precise /permissive- /Zc:wchar_t /Zc:forScope /Zc:inline /Fo"DEBUG\\" /Fd"DEBUG\VC142.PDB" /Gd /TC /analyze- /FC C:\USERS\ANTON\ADCS SPACE CENTER\CPP VS\SOFA\SRC\FANE03.C
^C:\USERS\ANTON\ADCS SPACE CENTER\CPP VS\SOFA\SRC\FAOM03.C
/c /ZI /JMC /nologo /W3 /WX- /diagnostics:column /sdl /Od /Oy- /D WIN32 /D _DEBUG /D _CONSOLE /D _UNICODE /D UNICODE /Gm- /EHsc /RTC1 /MDd /GS /fp:precise /permissive- /Zc:wchar_t /Zc:forScope /Zc:inline /Fo"DEBUG\\" /Fd"DEBUG\VC142.PDB" /Gd /TC /analyze- /FC C:\USERS\ANTON\ADCS SPACE CENTER\CPP VS\SOFA\SRC\FAOM03.C
^C:\USERS\ANTON\ADCS SPACE CENTER\CPP VS\SOFA\SRC\FAPA03.C
/c /ZI /JMC /nologo /W3 /WX- /diagnostics:column /sdl /Od /Oy- /D WIN32 /D _DEBUG /D _CONSOLE /D _UNICODE /D UNICODE /Gm- /EHsc /RTC1 /MDd /GS /fp:precise /permissive- /Zc:wchar_t /Zc:forScope /Zc:inline /Fo"DEBUG\\" /Fd"DEBUG\VC142.PDB" /Gd /TC /analyze- /FC C:\USERS\ANTON\ADCS SPACE CENTER\CPP VS\SOFA\SRC\FAPA03.C
^C:\USERS\ANTON\ADCS SPACE CENTER\CPP VS\SOFA\SRC\FASA03.C
/c /ZI /JMC /nologo /W3 /WX- /diagnostics:column /sdl /Od /Oy- /D WIN32 /D _DEBUG /D _CONSOLE /D _UNICODE /D UNICODE /Gm- /EHsc /RTC1 /MDd /GS /fp:precise /permissive- /Zc:wchar_t /Zc:forScope /Zc:inline /Fo"DEBUG\\" /Fd"DEBUG\VC142.PDB" /Gd /TC /analyze- /FC C:\USERS\ANTON\ADCS SPACE CENTER\CPP VS\SOFA\SRC\FASA03.C
^C:\USERS\ANTON\ADCS SPACE CENTER\CPP VS\SOFA\SRC\FAUR03.C
/c /ZI /JMC /nologo /W3 /WX- /diagnostics:column /sdl /Od /Oy- /D WIN32 /D _DEBUG /D _CONSOLE /D _UNICODE /D UNICODE /Gm- /EHsc /RTC1 /MDd /GS /fp:precise /permissive- /Zc:wchar_t /Zc:forScope /Zc:inline /Fo"DEBUG\\" /Fd"DEBUG\VC142.PDB" /Gd /TC /analyze- /FC C:\USERS\ANTON\ADCS SPACE CENTER\CPP VS\SOFA\SRC\FAUR03.C
^C:\USERS\ANTON\ADCS SPACE CENTER\CPP VS\SOFA\SRC\FAVE03.C
/c /ZI /JMC /nologo /W3 /WX- /diagnostics:column /sdl /Od /Oy- /D WIN32 /D _DEBUG /D _CONSOLE /D _UNICODE /D UNICODE /Gm- /EHsc /RTC1 /MDd /GS /fp:precise /permissive- /Zc:wchar_t /Zc:forScope /Zc:inline /Fo"DEBUG\\" /Fd"DEBUG\VC142.PDB" /Gd /TC /analyze- /FC C:\USERS\ANTON\ADCS SPACE CENTER\CPP VS\SOFA\SRC\FAVE03.C
^C:\USERS\ANTON\ADCS SPACE CENTER\CPP VS\SOFA\SRC\FK425.C
/c /ZI /JMC /nologo /W3 /WX- /diagnostics:column /sdl /Od /Oy- /D WIN32 /D _DEBUG /D _CONSOLE /D _UNICODE /D UNICODE /Gm- /EHsc /RTC1 /MDd /GS /fp:precise /permissive- /Zc:wchar_t /Zc:forScope /Zc:inline /Fo"DEBUG\\" /Fd"DEBUG\VC142.PDB" /Gd /TC /analyze- /FC C:\USERS\ANTON\ADCS SPACE CENTER\CPP VS\SOFA\SRC\FK425.C
^C:\USERS\ANTON\ADCS SPACE CENTER\CPP VS\SOFA\SRC\FK45Z.C
/c /ZI /JMC /nologo /W3 /WX- /diagnostics:column /sdl /Od /Oy- /D WIN32 /D _DEBUG /D _CONSOLE /D _UNICODE /D UNICODE /Gm- /EHsc /RTC1 /MDd /GS /fp:precise /permissive- /Zc:wchar_t /Zc:forScope /Zc:inline /Fo"DEBUG\\" /Fd"DEBUG\VC142.PDB" /Gd /TC /analyze- /FC C:\USERS\ANTON\ADCS SPACE CENTER\CPP VS\SOFA\SRC\FK45Z.C
^C:\USERS\ANTON\ADCS SPACE CENTER\CPP VS\SOFA\SRC\FK524.C
/c /ZI /JMC /nologo /W3 /WX- /diagnostics:column /sdl /Od /Oy- /D WIN32 /D _DEBUG /D _CONSOLE /D _UNICODE /D UNICODE /Gm- /EHsc /RTC1 /MDd /GS /fp:precise /permissive- /Zc:wchar_t /Zc:forScope /Zc:inline /Fo"DEBUG\\" /Fd"DEBUG\VC142.PDB" /Gd /TC /analyze- /FC C:\USERS\ANTON\ADCS SPACE CENTER\CPP VS\SOFA\SRC\FK524.C
^C:\USERS\ANTON\ADCS SPACE CENTER\CPP VS\SOFA\SRC\FK52H.C
/c /ZI /JMC /nologo /W3 /WX- /diagnostics:column /sdl /Od /Oy- /D WIN32 /D _DEBUG /D _CONSOLE /D _UNICODE /D UNICODE /Gm- /EHsc /RTC1 /MDd /GS /fp:precise /permissive- /Zc:wchar_t /Zc:forScope /Zc:inline /Fo"DEBUG\\" /Fd"DEBUG\VC142.PDB" /Gd /TC /analyze- /FC C:\USERS\ANTON\ADCS SPACE CENTER\CPP VS\SOFA\SRC\FK52H.C
^C:\USERS\ANTON\ADCS SPACE CENTER\CPP VS\SOFA\SRC\FK54Z.C
/c /ZI /JMC /nologo /W3 /WX- /diagnostics:column /sdl /Od /Oy- /D WIN32 /D _DEBUG /D _CONSOLE /D _UNICODE /D UNICODE /Gm- /EHsc /RTC1 /MDd /GS /fp:precise /permissive- /Zc:wchar_t /Zc:forScope /Zc:inline /Fo"DEBUG\\" /Fd"DEBUG\VC142.PDB" /Gd /TC /analyze- /FC C:\USERS\ANTON\ADCS SPACE CENTER\CPP VS\SOFA\SRC\FK54Z.C
^C:\USERS\ANTON\ADCS SPACE CENTER\CPP VS\SOFA\SRC\FK5HIP.C
/c /ZI /JMC /nologo /W3 /WX- /diagnostics:column /sdl /Od /Oy- /D WIN32 /D _DEBUG /D _CONSOLE /D _UNICODE /D UNICODE /Gm- /EHsc /RTC1 /MDd /GS /fp:precise /permissive- /Zc:wchar_t /Zc:forScope /Zc:inline /Fo"DEBUG\\" /Fd"DEBUG\VC142.PDB" /Gd /TC /analyze- /FC C:\USERS\ANTON\ADCS SPACE CENTER\CPP VS\SOFA\SRC\FK5HIP.C
^C:\USERS\ANTON\ADCS SPACE CENTER\CPP VS\SOFA\SRC\FK5HZ.C
/c /ZI /JMC /nologo /W3 /WX- /diagnostics:column /sdl /Od /Oy- /D WIN32 /D _DEBUG /D _CONSOLE /D _UNICODE /D UNICODE /Gm- /EHsc /RTC1 /MDd /GS /fp:precise /permissive- /Zc:wchar_t /Zc:forScope /Zc:inline /Fo"DEBUG\\" /Fd"DEBUG\VC142.PDB" /Gd /TC /analyze- /FC C:\USERS\ANTON\ADCS SPACE CENTER\CPP VS\SOFA\SRC\FK5HZ.C
^C:\USERS\ANTON\ADCS SPACE CENTER\CPP VS\SOFA\SRC\FW2M.C
/c /ZI /JMC /nologo /W3 /WX- /diagnostics:column /sdl /Od /Oy- /D WIN32 /D _DEBUG /D _CONSOLE /D _UNICODE /D UNICODE /Gm- /EHsc /RTC1 /MDd /GS /fp:precise /permissive- /Zc:wchar_t /Zc:forScope /Zc:inline /Fo"DEBUG\\" /Fd"DEBUG\VC142.PDB" /Gd /TC /analyze- /FC C:\USERS\ANTON\ADCS SPACE CENTER\CPP VS\SOFA\SRC\FW2M.C
^C:\USERS\ANTON\ADCS SPACE CENTER\CPP VS\SOFA\SRC\FW2XY.C
/c /ZI /JMC /nologo /W3 /WX- /diagnostics:column /sdl /Od /Oy- /D WIN32 /D _DEBUG /D _CONSOLE /D _UNICODE /D UNICODE /Gm- /EHsc /RTC1 /MDd /GS /fp:precise /permissive- /Zc:wchar_t /Zc:forScope /Zc:inline /Fo"DEBUG\\" /Fd"DEBUG\VC142.PDB" /Gd /TC /analyze- /FC C:\USERS\ANTON\ADCS SPACE CENTER\CPP VS\SOFA\SRC\FW2XY.C
^C:\USERS\ANTON\ADCS SPACE CENTER\CPP VS\SOFA\SRC\G2ICRS.C
/c /ZI /JMC /nologo /W3 /WX- /diagnostics:column /sdl /Od /Oy- /D WIN32 /D _DEBUG /D _CONSOLE /D _UNICODE /D UNICODE /Gm- /EHsc /RTC1 /MDd /GS /fp:precise /permissive- /Zc:wchar_t /Zc:forScope /Zc:inline /Fo"DEBUG\\" /Fd"DEBUG\VC142.PDB" /Gd /TC /analyze- /FC C:\USERS\ANTON\ADCS SPACE CENTER\CPP VS\SOFA\SRC\G2ICRS.C
^C:\USERS\ANTON\ADCS SPACE CENTER\CPP VS\SOFA\SRC\GC2GD.C
/c /ZI /JMC /nologo /W3 /WX- /diagnostics:column /sdl /Od /Oy- /D WIN32 /D _DEBUG /D _CONSOLE /D _UNICODE /D UNICODE /Gm- /EHsc /RTC1 /MDd /GS /fp:precise /permissive- /Zc:wchar_t /Zc:forScope /Zc:inline /Fo"DEBUG\\" /Fd"DEBUG\VC142.PDB" /Gd /TC /analyze- /FC C:\USERS\ANTON\ADCS SPACE CENTER\CPP VS\SOFA\SRC\GC2GD.C
^C:\USERS\ANTON\ADCS SPACE CENTER\CPP VS\SOFA\SRC\GC2GDE.C
/c /ZI /JMC /nologo /W3 /WX- /diagnostics:column /sdl /Od /Oy- /D WIN32 /D _DEBUG /D _CONSOLE /D _UNICODE /D UNICODE /Gm- /EHsc /RTC1 /MDd /GS /fp:precise /permissive- /Zc:wchar_t /Zc:forScope /Zc:inline /Fo"DEBUG\\" /Fd"DEBUG\VC142.PDB" /Gd /TC /analyze- /FC C:\USERS\ANTON\ADCS SPACE CENTER\CPP VS\SOFA\SRC\GC2GDE.C
^C:\USERS\ANTON\ADCS SPACE CENTER\CPP VS\SOFA\SRC\GD2GC.C
/c /ZI /JMC /nologo /W3 /WX- /diagnostics:column /sdl /Od /Oy- /D WIN32 /D _DEBUG /D _CONSOLE /D _UNICODE /D UNICODE /Gm- /EHsc /RTC1 /MDd /GS /fp:precise /permissive- /Zc:wchar_t /Zc:forScope /Zc:inline /Fo"DEBUG\\" /Fd"DEBUG\VC142.PDB" /Gd /TC /analyze- /FC C:\USERS\ANTON\ADCS SPACE CENTER\CPP VS\SOFA\SRC\GD2GC.C
^C:\USERS\ANTON\ADCS SPACE CENTER\CPP VS\SOFA\SRC\GD2GCE.C
/c /ZI /JMC /nologo /W3 /WX- /diagnostics:column /sdl /Od /Oy- /D WIN32 /D _DEBUG /D _CONSOLE /D _UNICODE /D UNICODE /Gm- /EHsc /RTC1 /MDd /GS /fp:precise /permissive- /Zc:wchar_t /Zc:forScope /Zc:inline /Fo"DEBUG\\" /Fd"DEBUG\VC142.PDB" /Gd /TC /analyze- /FC C:\USERS\ANTON\ADCS SPACE CENTER\CPP VS\SOFA\SRC\GD2GCE.C
^C:\USERS\ANTON\ADCS SPACE CENTER\CPP VS\SOFA\SRC\GMST00.C
/c /ZI /JMC /nologo /W3 /WX- /diagnostics:column /sdl /Od /Oy- /D WIN32 /D _DEBUG /D _CONSOLE /D _UNICODE /D UNICODE /Gm- /EHsc /RTC1 /MDd /GS /fp:precise /permissive- /Zc:wchar_t /Zc:forScope /Zc:inline /Fo"DEBUG\\" /Fd"DEBUG\VC142.PDB" /Gd /TC /analyze- /FC C:\USERS\ANTON\ADCS SPACE CENTER\CPP VS\SOFA\SRC\GMST00.C
^C:\USERS\ANTON\ADCS SPACE CENTER\CPP VS\SOFA\SRC\GMST06.C
/c /ZI /JMC /nologo /W3 /WX- /diagnostics:column /sdl /Od /Oy- /D WIN32 /D _DEBUG /D _CONSOLE /D _UNICODE /D UNICODE /Gm- /EHsc /RTC1 /MDd /GS /fp:precise /permissive- /Zc:wchar_t /Zc:forScope /Zc:inline /Fo"DEBUG\\" /Fd"DEBUG\VC142.PDB" /Gd /TC /analyze- /FC C:\USERS\ANTON\ADCS SPACE CENTER\CPP VS\SOFA\SRC\GMST06.C
^C:\USERS\ANTON\ADCS SPACE CENTER\CPP VS\SOFA\SRC\GMST82.C
/c /ZI /JMC /nologo /W3 /WX- /diagnostics:column /sdl /Od /Oy- /D WIN32 /D _DEBUG /D _CONSOLE /D _UNICODE /D UNICODE /Gm- /EHsc /RTC1 /MDd /GS /fp:precise /permissive- /Zc:wchar_t /Zc:forScope /Zc:inline /Fo"DEBUG\\" /Fd"DEBUG\VC142.PDB" /Gd /TC /analyze- /FC C:\USERS\ANTON\ADCS SPACE CENTER\CPP VS\SOFA\SRC\GMST82.C
^C:\USERS\ANTON\ADCS SPACE CENTER\CPP VS\SOFA\SRC\GST00A.C
/c /ZI /JMC /nologo /W3 /WX- /diagnostics:column /sdl /Od /Oy- /D WIN32 /D _DEBUG /D _CONSOLE /D _UNICODE /D UNICODE /Gm- /EHsc /RTC1 /MDd /GS /fp:precise /permissive- /Zc:wchar_t /Zc:forScope /Zc:inline /Fo"DEBUG\\" /Fd"DEBUG\VC142.PDB" /Gd /TC /analyze- /FC C:\USERS\ANTON\ADCS SPACE CENTER\CPP VS\SOFA\SRC\GST00A.C
^C:\USERS\ANTON\ADCS SPACE CENTER\CPP VS\SOFA\SRC\GST00B.C
/c /ZI /JMC /nologo /W3 /WX- /diagnostics:column /sdl /Od /Oy- /D WIN32 /D _DEBUG /D _CONSOLE /D _UNICODE /D UNICODE /Gm- /EHsc /RTC1 /MDd /GS /fp:precise /permissive- /Zc:wchar_t /Zc:forScope /Zc:inline /Fo"DEBUG\\" /Fd"DEBUG\VC142.PDB" /Gd /TC /analyze- /FC C:\USERS\ANTON\ADCS SPACE CENTER\CPP VS\SOFA\SRC\GST00B.C
^C:\USERS\ANTON\ADCS SPACE CENTER\CPP VS\SOFA\SRC\GST06.C
/c /ZI /JMC /nologo /W3 /WX- /diagnostics:column /sdl /Od /Oy- /D WIN32 /D _DEBUG /D _CONSOLE /D _UNICODE /D UNICODE /Gm- /EHsc /RTC1 /MDd /GS /fp:precise /permissive- /Zc:wchar_t /Zc:forScope /Zc:inline /Fo"DEBUG\\" /Fd"DEBUG\VC142.PDB" /Gd /TC /analyze- /FC C:\USERS\ANTON\ADCS SPACE CENTER\CPP VS\SOFA\SRC\GST06.C
^C:\USERS\ANTON\ADCS SPACE CENTER\CPP VS\SOFA\SRC\GST06A.C
/c /ZI /JMC /nologo /W3 /WX- /diagnostics:column /sdl /Od /Oy- /D WIN32 /D _DEBUG /D _CONSOLE /D _UNICODE /D UNICODE /Gm- /EHsc /RTC1 /MDd /GS /fp:precise /permissive- /Zc:wchar_t /Zc:forScope /Zc:inline /Fo"DEBUG\\" /Fd"DEBUG\VC142.PDB" /Gd /TC /analyze- /FC C:\USERS\ANTON\ADCS SPACE CENTER\CPP VS\SOFA\SRC\GST06A.C
^C:\USERS\ANTON\ADCS SPACE CENTER\CPP VS\SOFA\SRC\GST94.C
/c /ZI /JMC /nologo /W3 /WX- /diagnostics:column /sdl /Od /Oy- /D WIN32 /D _DEBUG /D _CONSOLE /D _UNICODE /D UNICODE /Gm- /EHsc /RTC1 /MDd /GS /fp:precise /permissive- /Zc:wchar_t /Zc:forScope /Zc:inline /Fo"DEBUG\\" /Fd"DEBUG\VC142.PDB" /Gd /TC /analyze- /FC C:\USERS\ANTON\ADCS SPACE CENTER\CPP VS\SOFA\SRC\GST94.C
^C:\USERS\ANTON\ADCS SPACE CENTER\CPP VS\SOFA\SRC\H2FK5.C
/c /ZI /JMC /nologo /W3 /WX- /diagnostics:column /sdl /Od /Oy- /D WIN32 /D _DEBUG /D _CONSOLE /D _UNICODE /D UNICODE /Gm- /EHsc /RTC1 /MDd /GS /fp:precise /permissive- /Zc:wchar_t /Zc:forScope /Zc:inline /Fo"DEBUG\\" /Fd"DEBUG\VC142.PDB" /Gd /TC /analyze- /FC C:\USERS\ANTON\ADCS SPACE CENTER\CPP VS\SOFA\SRC\H2FK5.C
^C:\USERS\ANTON\ADCS SPACE CENTER\CPP VS\SOFA\SRC\HD2AE.C
/c /ZI /JMC /nologo /W3 /WX- /diagnostics:column /sdl /Od /Oy- /D WIN32 /D _DEBUG /D _CONSOLE /D _UNICODE /D UNICODE /Gm- /EHsc /RTC1 /MDd /GS /fp:precise /permissive- /Zc:wchar_t /Zc:forScope /Zc:inline /Fo"DEBUG\\" /Fd"DEBUG\VC142.PDB" /Gd /TC /analyze- /FC C:\USERS\ANTON\ADCS SPACE CENTER\CPP VS\SOFA\SRC\HD2AE.C
^C:\USERS\ANTON\ADCS SPACE CENTER\CPP VS\SOFA\SRC\HD2PA.C
/c /ZI /JMC /nologo /W3 /WX- /diagnostics:column /sdl /Od /Oy- /D WIN32 /D _DEBUG /D _CONSOLE /D _UNICODE /D UNICODE /Gm- /EHsc /RTC1 /MDd /GS /fp:precise /permissive- /Zc:wchar_t /Zc:forScope /Zc:inline /Fo"DEBUG\\" /Fd"DEBUG\VC142.PDB" /Gd /TC /analyze- /FC C:\USERS\ANTON\ADCS SPACE CENTER\CPP VS\SOFA\SRC\HD2PA.C
^C:\USERS\ANTON\ADCS SPACE CENTER\CPP VS\SOFA\SRC\HFK5Z.C
/c /ZI /JMC /nologo /W3 /WX- /diagnostics:column /sdl /Od /Oy- /D WIN32 /D _DEBUG /D _CONSOLE /D _UNICODE /D UNICODE /Gm- /EHsc /RTC1 /MDd /GS /fp:precise /permissive- /Zc:wchar_t /Zc:forScope /Zc:inline /Fo"DEBUG\\" /Fd"DEBUG\VC142.PDB" /Gd /TC /analyze- /FC C:\USERS\ANTON\ADCS SPACE CENTER\CPP VS\SOFA\SRC\HFK5Z.C
^C:\USERS\ANTON\ADCS SPACE CENTER\CPP VS\SOFA\SRC\ICRS2G.C
/c /ZI /JMC /nologo /W3 /WX- /diagnostics:column /sdl /Od /Oy- /D WIN32 /D _DEBUG /D _CONSOLE /D _UNICODE /D UNICODE /Gm- /EHsc /RTC1 /MDd /GS /fp:precise /permissive- /Zc:wchar_t /Zc:forScope /Zc:inline /Fo"DEBUG\\" /Fd"DEBUG\VC142.PDB" /Gd /TC /analyze- /FC C:\USERS\ANTON\ADCS SPACE CENTER\CPP VS\SOFA\SRC\ICRS2G.C
^C:\USERS\ANTON\ADCS SPACE CENTER\CPP VS\SOFA\SRC\IR.C
/c /ZI /JMC /nologo /W3 /WX- /diagnostics:column /sdl /Od /Oy- /D WIN32 /D _DEBUG /D _CONSOLE /D _UNICODE /D UNICODE /Gm- /EHsc /RTC1 /MDd /GS /fp:precise /permissive- /Zc:wchar_t /Zc:forScope /Zc:inline /Fo"DEBUG\\" /Fd"DEBUG\VC142.PDB" /Gd /TC /analyze- /FC C:\USERS\ANTON\ADCS SPACE CENTER\CPP VS\SOFA\SRC\IR.C
^C:\USERS\ANTON\ADCS SPACE CENTER\CPP VS\SOFA\SRC\JD2CAL.C
/c /ZI /JMC /nologo /W3 /WX- /diagnostics:column /sdl /Od /Oy- /D WIN32 /D _DEBUG /D _CONSOLE /D _UNICODE /D UNICODE /Gm- /EHsc /RTC1 /MDd /GS /fp:precise /permissive- /Zc:wchar_t /Zc:forScope /Zc:inline /Fo"DEBUG\\" /Fd"DEBUG\VC142.PDB" /Gd /TC /analyze- /FC C:\USERS\ANTON\ADCS SPACE CENTER\CPP VS\SOFA\SRC\JD2CAL.C
^C:\USERS\ANTON\ADCS SPACE CENTER\CPP VS\SOFA\SRC\JDCALF.C
/c /ZI /JMC /nologo /W3 /WX- /diagnostics:column /sdl /Od /Oy- /D WIN32 /D _DEBUG /D _CONSOLE /D _UNICODE /D UNICODE /Gm- /EHsc /RTC1 /MDd /GS /fp:precise /permissive- /Zc:wchar_t /Zc:forScope /Zc:inline /Fo"DEBUG\\" /Fd"DEBUG\VC142.PDB" /Gd /TC /analyze- /FC C:\USERS\ANTON\ADCS SPACE CENTER\CPP VS\SOFA\SRC\JDCALF.C
^C:\USERS\ANTON\ADCS SPACE CENTER\CPP VS\SOFA\SRC\LD.C
/c /ZI /JMC /nologo /W3 /WX- /diagnostics:column /sdl /Od /Oy- /D WIN32 /D _DEBUG /D _CONSOLE /D _UNICODE /D UNICODE /Gm- /EHsc /RTC1 /MDd /GS /fp:precise /permissive- /Zc:wchar_t /Zc:forScope /Zc:inline /Fo"DEBUG\\" /Fd"DEBUG\VC142.PDB" /Gd /TC /analyze- /FC C:\USERS\ANTON\ADCS SPACE CENTER\CPP VS\SOFA\SRC\LD.C
^C:\USERS\ANTON\ADCS SPACE CENTER\CPP VS\SOFA\SRC\LDN.C
/c /ZI /JMC /nologo /W3 /WX- /diagnostics:column /sdl /Od /Oy- /D WIN32 /D _DEBUG /D _CONSOLE /D _UNICODE /D UNICODE /Gm- /EHsc /RTC1 /MDd /GS /fp:precise /permissive- /Zc:wchar_t /Zc:forScope /Zc:inline /Fo"DEBUG\\" /Fd"DEBUG\VC142.PDB" /Gd /TC /analyze- /FC C:\USERS\ANTON\ADCS SPACE CENTER\CPP VS\SOFA\SRC\LDN.C
^C:\USERS\ANTON\ADCS SPACE CENTER\CPP VS\SOFA\SRC\LDSUN.C
/c /ZI /JMC /nologo /W3 /WX- /diagnostics:column /sdl /Od /Oy- /D WIN32 /D _DEBUG /D _CONSOLE /D _UNICODE /D UNICODE /Gm- /EHsc /RTC1 /MDd /GS /fp:precise /permissive- /Zc:wchar_t /Zc:forScope /Zc:inline /Fo"DEBUG\\" /Fd"DEBUG\VC142.PDB" /Gd /TC /analyze- /FC C:\USERS\ANTON\ADCS SPACE CENTER\CPP VS\SOFA\SRC\LDSUN.C
^C:\USERS\ANTON\ADCS SPACE CENTER\CPP VS\SOFA\SRC\LTECEQ.C
/c /ZI /JMC /nologo /W3 /WX- /diagnostics:column /sdl /Od /Oy- /D WIN32 /D _DEBUG /D _CONSOLE /D _UNICODE /D UNICODE /Gm- /EHsc /RTC1 /MDd /GS /fp:precise /permissive- /Zc:wchar_t /Zc:forScope /Zc:inline /Fo"DEBUG\\" /Fd"DEBUG\VC142.PDB" /Gd /TC /analyze- /FC C:\USERS\ANTON\ADCS SPACE CENTER\CPP VS\SOFA\SRC\LTECEQ.C
^C:\USERS\ANTON\ADCS SPACE CENTER\CPP VS\SOFA\SRC\LTECM.C
/c /ZI /JMC /nologo /W3 /WX- /diagnostics:column /sdl /Od /Oy- /D WIN32 /D _DEBUG /D _CONSOLE /D _UNICODE /D UNICODE /Gm- /EHsc /RTC1 /MDd /GS /fp:precise /permissive- /Zc:wchar_t /Zc:forScope /Zc:inline /Fo"DEBUG\\" /Fd"DEBUG\VC142.PDB" /Gd /TC /analyze- /FC C:\USERS\ANTON\ADCS SPACE CENTER\CPP VS\SOFA\SRC\LTECM.C
^C:\USERS\ANTON\ADCS SPACE CENTER\CPP VS\SOFA\SRC\LTEQEC.C
/c /ZI /JMC /nologo /W3 /WX- /diagnostics:column /sdl /Od /Oy- /D WIN32 /D _DEBUG /D _CONSOLE /D _UNICODE /D UNICODE /Gm- /EHsc /RTC1 /MDd /GS /fp:precise /permissive- /Zc:wchar_t /Zc:forScope /Zc:inline /Fo"DEBUG\\" /Fd"DEBUG\VC142.PDB" /Gd /TC /analyze- /FC C:\USERS\ANTON\ADCS SPACE CENTER\CPP VS\SOFA\SRC\LTEQEC.C
^C:\USERS\ANTON\ADCS SPACE CENTER\CPP VS\SOFA\SRC\LTP.C
/c /ZI /JMC /nologo /W3 /WX- /diagnostics:column /sdl /Od /Oy- /D WIN32 /D _DEBUG /D _CONSOLE /D _UNICODE /D UNICODE /Gm- /EHsc /RTC1 /MDd /GS /fp:precise /permissive- /Zc:wchar_t /Zc:forScope /Zc:inline /Fo"DEBUG\\" /Fd"DEBUG\VC142.PDB" /Gd /TC /analyze- /FC C:\USERS\ANTON\ADCS SPACE CENTER\CPP VS\SOFA\SRC\LTP.C
^C:\USERS\ANTON\ADCS SPACE CENTER\CPP VS\SOFA\SRC\LTPB.C
/c /ZI /JMC /nologo /W3 /WX- /diagnostics:column /sdl /Od /Oy- /D WIN32 /D _DEBUG /D _CONSOLE /D _UNICODE /D UNICODE /Gm- /EHsc /RTC1 /MDd /GS /fp:precise /permissive- /Zc:wchar_t /Zc:forScope /Zc:inline /Fo"DEBUG\\" /Fd"DEBUG\VC142.PDB" /Gd /TC /analyze- /FC C:\USERS\ANTON\ADCS SPACE CENTER\CPP VS\SOFA\SRC\LTPB.C
^C:\USERS\ANTON\ADCS SPACE CENTER\CPP VS\SOFA\SRC\LTPECL.C
/c /ZI /JMC /nologo /W3 /WX- /diagnostics:column /sdl /Od /Oy- /D WIN32 /D _DEBUG /D _CONSOLE /D _UNICODE /D UNICODE /Gm- /EHsc /RTC1 /MDd /GS /fp:precise /permissive- /Zc:wchar_t /Zc:forScope /Zc:inline /Fo"DEBUG\\" /Fd"DEBUG\VC142.PDB" /Gd /TC /analyze- /FC C:\USERS\ANTON\ADCS SPACE CENTER\CPP VS\SOFA\SRC\LTPECL.C
^C:\USERS\ANTON\ADCS SPACE CENTER\CPP VS\SOFA\SRC\LTPEQU.C
/c /ZI /JMC /nologo /W3 /WX- /diagnostics:column /sdl /Od /Oy- /D WIN32 /D _DEBUG /D _CONSOLE /D _UNICODE /D UNICODE /Gm- /EHsc /RTC1 /MDd /GS /fp:precise /permissive- /Zc:wchar_t /Zc:forScope /Zc:inline /Fo"DEBUG\\" /Fd"DEBUG\VC142.PDB" /Gd /TC /analyze- /FC C:\USERS\ANTON\ADCS SPACE CENTER\CPP VS\SOFA\SRC\LTPEQU.C
^C:\USERS\ANTON\ADCS SPACE CENTER\CPP VS\SOFA\SRC\MOON98.C
/c /ZI /JMC /nologo /W3 /WX- /diagnostics:column /sdl /Od /Oy- /D WIN32 /D _DEBUG /D _CONSOLE /D _UNICODE /D UNICODE /Gm- /EHsc /RTC1 /MDd /GS /fp:precise /permissive- /Zc:wchar_t /Zc:forScope /Zc:inline /Fo"DEBUG\\" /Fd"DEBUG\VC142.PDB" /Gd /TC /analyze- /FC C:\USERS\ANTON\ADCS SPACE CENTER\CPP VS\SOFA\SRC\MOON98.C
^C:\USERS\ANTON\ADCS SPACE CENTER\CPP VS\SOFA\SRC\NUM00A.C
/c /ZI /JMC /nologo /W3 /WX- /diagnostics:column /sdl /Od /Oy- /D WIN32 /D _DEBUG /D _CONSOLE /D _UNICODE /D UNICODE /Gm- /EHsc /RTC1 /MDd /GS /fp:precise /permissive- /Zc:wchar_t /Zc:forScope /Zc:inline /Fo"DEBUG\\" /Fd"DEBUG\VC142.PDB" /Gd /TC /analyze- /FC C:\USERS\ANTON\ADCS SPACE CENTER\CPP VS\SOFA\SRC\NUM00A.C
^C:\USERS\ANTON\ADCS SPACE CENTER\CPP VS\SOFA\SRC\NUM00B.C
/c /ZI /JMC /nologo /W3 /WX- /diagnostics:column /sdl /Od /Oy- /D WIN32 /D _DEBUG /D _CONSOLE /D _UNICODE /D UNICODE /Gm- /EHsc /RTC1 /MDd /GS /fp:precise /permissive- /Zc:wchar_t /Zc:forScope /Zc:inline /Fo"DEBUG\\" /Fd"DEBUG\VC142.PDB" /Gd /TC /analyze- /FC C:\USERS\ANTON\ADCS SPACE CENTER\CPP VS\SOFA\SRC\NUM00B.C
^C:\USERS\ANTON\ADCS SPACE CENTER\CPP VS\SOFA\SRC\NUM06A.C
/c /ZI /JMC /nologo /W3 /WX- /diagnostics:column /sdl /Od /Oy- /D WIN32 /D _DEBUG /D _CONSOLE /D _UNICODE /D UNICODE /Gm- /EHsc /RTC1 /MDd /GS /fp:precise /permissive- /Zc:wchar_t /Zc:forScope /Zc:inline /Fo"DEBUG\\" /Fd"DEBUG\VC142.PDB" /Gd /TC /analyze- /FC C:\USERS\ANTON\ADCS SPACE CENTER\CPP VS\SOFA\SRC\NUM06A.C
^C:\USERS\ANTON\ADCS SPACE CENTER\CPP VS\SOFA\SRC\NUMAT.C
/c /ZI /JMC /nologo /W3 /WX- /diagnostics:column /sdl /Od /Oy- /D WIN32 /D _DEBUG /D _CONSOLE /D _UNICODE /D UNICODE /Gm- /EHsc /RTC1 /MDd /GS /fp:precise /permissive- /Zc:wchar_t /Zc:forScope /Zc:inline /Fo"DEBUG\\" /Fd"DEBUG\VC142.PDB" /Gd /TC /analyze- /FC C:\USERS\ANTON\ADCS SPACE CENTER\CPP VS\SOFA\SRC\NUMAT.C
^C:\USERS\ANTON\ADCS SPACE CENTER\CPP VS\SOFA\SRC\NUT00A.C
/c /ZI /JMC /nologo /W3 /WX- /diagnostics:column /sdl /Od /Oy- /D WIN32 /D _DEBUG /D _CONSOLE /D _UNICODE /D UNICODE /Gm- /EHsc /RTC1 /MDd /GS /fp:precise /permissive- /Zc:wchar_t /Zc:forScope /Zc:inline /Fo"DEBUG\\" /Fd"DEBUG\VC142.PDB" /Gd /TC /analyze- /FC C:\USERS\ANTON\ADCS SPACE CENTER\CPP VS\SOFA\SRC\NUT00A.C
^C:\USERS\ANTON\ADCS SPACE CENTER\CPP VS\SOFA\SRC\NUT00B.C
/c /ZI /JMC /nologo /W3 /WX- /diagnostics:column /sdl /Od /Oy- /D WIN32 /D _DEBUG /D _CONSOLE /D _UNICODE /D UNICODE /Gm- /EHsc /RTC1 /MDd /GS /fp:precise /permissive- /Zc:wchar_t /Zc:forScope /Zc:inline /Fo"DEBUG\\" /Fd"DEBUG\VC142.PDB" /Gd /TC /analyze- /FC C:\USERS\ANTON\ADCS SPACE CENTER\CPP VS\SOFA\SRC\NUT00B.C
^C:\USERS\ANTON\ADCS SPACE CENTER\CPP VS\SOFA\SRC\NUT06A.C
/c /ZI /JMC /nologo /W3 /WX- /diagnostics:column /sdl /Od /Oy- /D WIN32 /D _DEBUG /D _CONSOLE /D _UNICODE /D UNICODE /Gm- /EHsc /RTC1 /MDd /GS /fp:precise /permissive- /Zc:wchar_t /Zc:forScope /Zc:inline /Fo"DEBUG\\" /Fd"DEBUG\VC142.PDB" /Gd /TC /analyze- /FC C:\USERS\ANTON\ADCS SPACE CENTER\CPP VS\SOFA\SRC\NUT06A.C
^C:\USERS\ANTON\ADCS SPACE CENTER\CPP VS\SOFA\SRC\NUT80.C
/c /ZI /JMC /nologo /W3 /WX- /diagnostics:column /sdl /Od /Oy- /D WIN32 /D _DEBUG /D _CONSOLE /D _UNICODE /D UNICODE /Gm- /EHsc /RTC1 /MDd /GS /fp:precise /permissive- /Zc:wchar_t /Zc:forScope /Zc:inline /Fo"DEBUG\\" /Fd"DEBUG\VC142.PDB" /Gd /TC /analyze- /FC C:\USERS\ANTON\ADCS SPACE CENTER\CPP VS\SOFA\SRC\NUT80.C
^C:\USERS\ANTON\ADCS SPACE CENTER\CPP VS\SOFA\SRC\NUTM80.C
/c /ZI /JMC /nologo /W3 /WX- /diagnostics:column /sdl /Od /Oy- /D WIN32 /D _DEBUG /D _CONSOLE /D _UNICODE /D UNICODE /Gm- /EHsc /RTC1 /MDd /GS /fp:precise /permissive- /Zc:wchar_t /Zc:forScope /Zc:inline /Fo"DEBUG\\" /Fd"DEBUG\VC142.PDB" /Gd /TC /analyze- /FC C:\USERS\ANTON\ADCS SPACE CENTER\CPP VS\SOFA\SRC\NUTM80.C
^C:\USERS\ANTON\ADCS SPACE CENTER\CPP VS\SOFA\SRC\OBL06.C
/c /ZI /JMC /nologo /W3 /WX- /diagnostics:column /sdl /Od /Oy- /D WIN32 /D _DEBUG /D _CONSOLE /D _UNICODE /D UNICODE /Gm- /EHsc /RTC1 /MDd /GS /fp:precise /permissive- /Zc:wchar_t /Zc:forScope /Zc:inline /Fo"DEBUG\\" /Fd"DEBUG\VC142.PDB" /Gd /TC /analyze- /FC C:\USERS\ANTON\ADCS SPACE CENTER\CPP VS\SOFA\SRC\OBL06.C
^C:\USERS\ANTON\ADCS SPACE CENTER\CPP VS\SOFA\SRC\OBL80.C
/c /ZI /JMC /nologo /W3 /WX- /diagnostics:column /sdl /Od /Oy- /D WIN32 /D _DEBUG /D _CONSOLE /D _UNICODE /D UNICODE /Gm- /EHsc /RTC1 /MDd /GS /fp:precise /permissive- /Zc:wchar_t /Zc:forScope /Zc:inline /Fo"DEBUG\\" /Fd"DEBUG\VC142.PDB" /Gd /TC /analyze- /FC C:\USERS\ANTON\ADCS SPACE CENTER\CPP VS\SOFA\SRC\OBL80.C
^C:\USERS\ANTON\ADCS SPACE CENTER\CPP VS\SOFA\SRC\P06E.C
/c /ZI /JMC /nologo /W3 /WX- /diagnostics:column /sdl /Od /Oy- /D WIN32 /D _DEBUG /D _CONSOLE /D _UNICODE /D UNICODE /Gm- /EHsc /RTC1 /MDd /GS /fp:precise /permissive- /Zc:wchar_t /Zc:forScope /Zc:inline /Fo"DEBUG\\" /Fd"DEBUG\VC142.PDB" /Gd /TC /analyze- /FC C:\USERS\ANTON\ADCS SPACE CENTER\CPP VS\SOFA\SRC\P06E.C
^C:\USERS\ANTON\ADCS SPACE CENTER\CPP VS\SOFA\SRC\P2PV.C
/c /ZI /JMC /nologo /W3 /WX- /diagnostics:column /sdl /Od /Oy- /D WIN32 /D _DEBUG /D _CONSOLE /D _UNICODE /D UNICODE /Gm- /EHsc /RTC1 /MDd /GS /fp:precise /permissive- /Zc:wchar_t /Zc:forScope /Zc:inline /Fo"DEBUG\\" /Fd"DEBUG\VC142.PDB" /Gd /TC /analyze- /FC C:\USERS\ANTON\ADCS SPACE CENTER\CPP VS\SOFA\SRC\P2PV.C
^C:\USERS\ANTON\ADCS SPACE CENTER\CPP VS\SOFA\SRC\P2S.C
/c /ZI /JMC /nologo /W3 /WX- /diagnostics:column /sdl /Od /Oy- /D WIN32 /D _DEBUG /D _CONSOLE /D _UNICODE /D UNICODE /Gm- /EHsc /RTC1 /MDd /GS /fp:precise /permissive- /Zc:wchar_t /Zc:forScope /Zc:inline /Fo"DEBUG\\" /Fd"DEBUG\VC142.PDB" /Gd /TC /analyze- /FC C:\USERS\ANTON\ADCS SPACE CENTER\CPP VS\SOFA\SRC\P2S.C
^C:\USERS\ANTON\ADCS SPACE CENTER\CPP VS\SOFA\SRC\PAP.C
/c /ZI /JMC /nologo /W3 /WX- /diagnostics:column /sdl /Od /Oy- /D WIN32 /D _DEBUG /D _CONSOLE /D _UNICODE /D UNICODE /Gm- /EHsc /RTC1 /MDd /GS /fp:precise /permissive- /Zc:wchar_t /Zc:forScope /Zc:inline /Fo"DEBUG\\" /Fd"DEBUG\VC142.PDB" /Gd /TC /analyze- /FC C:\USERS\ANTON\ADCS SPACE CENTER\CPP VS\SOFA\SRC\PAP.C
^C:\USERS\ANTON\ADCS SPACE CENTER\CPP VS\SOFA\SRC\PAS.C
/c /ZI /JMC /nologo /W3 /WX- /diagnostics:column /sdl /Od /Oy- /D WIN32 /D _DEBUG /D _CONSOLE /D _UNICODE /D UNICODE /Gm- /EHsc /RTC1 /MDd /GS /fp:precise /permissive- /Zc:wchar_t /Zc:forScope /Zc:inline /Fo"DEBUG\\" /Fd"DEBUG\VC142.PDB" /Gd /TC /analyze- /FC C:\USERS\ANTON\ADCS SPACE CENTER\CPP VS\SOFA\SRC\PAS.C
^C:\USERS\ANTON\ADCS SPACE CENTER\CPP VS\SOFA\SRC\PB06.C
/c /ZI /JMC /nologo /W3 /WX- /diagnostics:column /sdl /Od /Oy- /D WIN32 /D _DEBUG /D _CONSOLE /D _UNICODE /D UNICODE /Gm- /EHsc /RTC1 /MDd /GS /fp:precise /permissive- /Zc:wchar_t /Zc:forScope /Zc:inline /Fo"DEBUG\\" /Fd"DEBUG\VC142.PDB" /Gd /TC /analyze- /FC C:\USERS\ANTON\ADCS SPACE CENTER\CPP VS\SOFA\SRC\PB06.C
^C:\USERS\ANTON\ADCS SPACE CENTER\CPP VS\SOFA\SRC\PDP.C
/c /ZI /JMC /nologo /W3 /WX- /diagnostics:column /sdl /Od /Oy- /D WIN32 /D _DEBUG /D _CONSOLE /D _UNICODE /D UNICODE /Gm- /EHsc /RTC1 /MDd /GS /fp:precise /permissive- /Zc:wchar_t /Zc:forScope /Zc:inline /Fo"DEBUG\\" /Fd"DEBUG\VC142.PDB" /Gd /TC /analyze- /FC C:\USERS\ANTON\ADCS SPACE CENTER\CPP VS\SOFA\SRC\PDP.C
^C:\USERS\ANTON\ADCS SPACE CENTER\CPP VS\SOFA\SRC\PFW06.C
/c /ZI /JMC /nologo /W3 /WX- /diagnostics:column /sdl /Od /Oy- /D WIN32 /D _DEBUG /D _CONSOLE /D _UNICODE /D UNICODE /Gm- /EHsc /RTC1 /MDd /GS /fp:precise /permissive- /Zc:wchar_t /Zc:forScope /Zc:inline /Fo"DEBUG\\" /Fd"DEBUG\VC142.PDB" /Gd /TC /analyze- /FC C:\USERS\ANTON\ADCS SPACE CENTER\CPP VS\SOFA\SRC\PFW06.C
^C:\USERS\ANTON\ADCS SPACE CENTER\CPP VS\SOFA\SRC\PLAN94.C
/c /ZI /JMC /nologo /W3 /WX- /diagnostics:column /sdl /Od /Oy- /D WIN32 /D _DEBUG /D _CONSOLE /D _UNICODE /D UNICODE /Gm- /EHsc /RTC1 /MDd /GS /fp:precise /permissive- /Zc:wchar_t /Zc:forScope /Zc:inline /Fo"DEBUG\\" /Fd"DEBUG\VC142.PDB" /Gd /TC /analyze- /FC C:\USERS\ANTON\ADCS SPACE CENTER\CPP VS\SOFA\SRC\PLAN94.C
^C:\USERS\ANTON\ADCS SPACE CENTER\CPP VS\SOFA\SRC\PM.C
/c /ZI /JMC /nologo /W3 /WX- /diagnostics:column /sdl /Od /Oy- /D WIN32 /D _DEBUG /D _CONSOLE /D _UNICODE /D UNICODE /Gm- /EHsc /RTC1 /MDd /GS /fp:precise /permissive- /Zc:wchar_t /Zc:forScope /Zc:inline /Fo"DEBUG\\" /Fd"DEBUG\VC142.PDB" /Gd /TC /analyze- /FC C:\USERS\ANTON\ADCS SPACE CENTER\CPP VS\SOFA\SRC\PM.C
^C:\USERS\ANTON\ADCS SPACE CENTER\CPP VS\SOFA\SRC\PMAT00.C
/c /ZI /JMC /nologo /W3 /WX- /diagnostics:column /sdl /Od /Oy- /D WIN32 /D _DEBUG /D _CONSOLE /D _UNICODE /D UNICODE /Gm- /EHsc /RTC1 /MDd /GS /fp:precise /permissive- /Zc:wchar_t /Zc:forScope /Zc:inline /Fo"DEBUG\\" /Fd"DEBUG\VC142.PDB" /Gd /TC /analyze- /FC C:\USERS\ANTON\ADCS SPACE CENTER\CPP VS\SOFA\SRC\PMAT00.C
^C:\USERS\ANTON\ADCS SPACE CENTER\CPP VS\SOFA\SRC\PMAT06.C
/c /ZI /JMC /nologo /W3 /WX- /diagnostics:column /sdl /Od /Oy- /D WIN32 /D _DEBUG /D _CONSOLE /D _UNICODE /D UNICODE /Gm- /EHsc /RTC1 /MDd /GS /fp:precise /permissive- /Zc:wchar_t /Zc:forScope /Zc:inline /Fo"DEBUG\\" /Fd"DEBUG\VC142.PDB" /Gd /TC /analyze- /FC C:\USERS\ANTON\ADCS SPACE CENTER\CPP VS\SOFA\SRC\PMAT06.C
^C:\USERS\ANTON\ADCS SPACE CENTER\CPP VS\SOFA\SRC\PMAT76.C
/c /ZI /JMC /nologo /W3 /WX- /diagnostics:column /sdl /Od /Oy- /D WIN32 /D _DEBUG /D _CONSOLE /D _UNICODE /D UNICODE /Gm- /EHsc /RTC1 /MDd /GS /fp:precise /permissive- /Zc:wchar_t /Zc:forScope /Zc:inline /Fo"DEBUG\\" /Fd"DEBUG\VC142.PDB" /Gd /TC /analyze- /FC C:\USERS\ANTON\ADCS SPACE CENTER\CPP VS\SOFA\SRC\PMAT76.C
^C:\USERS\ANTON\ADCS SPACE CENTER\CPP VS\SOFA\SRC\PMP.C
/c /ZI /JMC /nologo /W3 /WX- /diagnostics:column /sdl /Od /Oy- /D WIN32 /D _DEBUG /D _CONSOLE /D _UNICODE /D UNICODE /Gm- /EHsc /RTC1 /MDd /GS /fp:precise /permissive- /Zc:wchar_t /Zc:forScope /Zc:inline /Fo"DEBUG\\" /Fd"DEBUG\VC142.PDB" /Gd /TC /analyze- /FC C:\USERS\ANTON\ADCS SPACE CENTER\CPP VS\SOFA\SRC\PMP.C
^C:\USERS\ANTON\ADCS SPACE CENTER\CPP VS\SOFA\SRC\PMPX.C
/c /ZI /JMC /nologo /W3 /WX- /diagnostics:column /sdl /Od /Oy- /D WIN32 /D _DEBUG /D _CONSOLE /D _UNICODE /D UNICODE /Gm- /EHsc /RTC1 /MDd /GS /fp:precise /permissive- /Zc:wchar_t /Zc:forScope /Zc:inline /Fo"DEBUG\\" /Fd"DEBUG\VC142.PDB" /Gd /TC /analyze- /FC C:\USERS\ANTON\ADCS SPACE CENTER\CPP VS\SOFA\SRC\PMPX.C
^C:\USERS\ANTON\ADCS SPACE CENTER\CPP VS\SOFA\SRC\PMSAFE.C
/c /ZI /JMC /nologo /W3 /WX- /diagnostics:column /sdl /Od /Oy- /D WIN32 /D _DEBUG /D _CONSOLE /D _UNICODE /D UNICODE /Gm- /EHsc /RTC1 /MDd /GS /fp:precise /permissive- /Zc:wchar_t /Zc:forScope /Zc:inline /Fo"DEBUG\\" /Fd"DEBUG\VC142.PDB" /Gd /TC /analyze- /FC C:\USERS\ANTON\ADCS SPACE CENTER\CPP VS\SOFA\SRC\PMSAFE.C
^C:\USERS\ANTON\ADCS SPACE CENTER\CPP VS\SOFA\SRC\PN.C
/c /ZI /JMC /nologo /W3 /WX- /diagnostics:column /sdl /Od /Oy- /D WIN32 /D _DEBUG /D _CONSOLE /D _UNICODE /D UNICODE /Gm- /EHsc /RTC1 /MDd /GS /fp:precise /permissive- /Zc:wchar_t /Zc:forScope /Zc:inline /Fo"DEBUG\\" /Fd"DEBUG\VC142.PDB" /Gd /TC /analyze- /FC C:\USERS\ANTON\ADCS SPACE CENTER\CPP VS\SOFA\SRC\PN.C
^C:\USERS\ANTON\ADCS SPACE CENTER\CPP VS\SOFA\SRC\PN00.C
/c /ZI /JMC /nologo /W3 /WX- /diagnostics:column /sdl /Od /Oy- /D WIN32 /D _DEBUG /D _CONSOLE /D _UNICODE /D UNICODE /Gm- /EHsc /RTC1 /MDd /GS /fp:precise /permissive- /Zc:wchar_t /Zc:forScope /Zc:inline /Fo"DEBUG\\" /Fd"DEBUG\VC142.PDB" /Gd /TC /analyze- /FC C:\USERS\ANTON\ADCS SPACE CENTER\CPP VS\SOFA\SRC\PN00.C
^C:\USERS\ANTON\ADCS SPACE CENTER\CPP VS\SOFA\SRC\PN00A.C
/c /ZI /JMC /nologo /W3 /WX- /diagnostics:column /sdl /Od /Oy- /D WIN32 /D _DEBUG /D _CONSOLE /D _UNICODE /D UNICODE /Gm- /EHsc /RTC1 /MDd /GS /fp:precise /permissive- /Zc:wchar_t /Zc:forScope /Zc:inline /Fo"DEBUG\\" /Fd"DEBUG\VC142.PDB" /Gd /TC /analyze- /FC C:\USERS\ANTON\ADCS SPACE CENTER\CPP VS\SOFA\SRC\PN00A.C
^C:\USERS\ANTON\ADCS SPACE CENTER\CPP VS\SOFA\SRC\PN00B.C
/c /ZI /JMC /nologo /W3 /WX- /diagnostics:column /sdl /Od /Oy- /D WIN32 /D _DEBUG /D _CONSOLE /D _UNICODE /D UNICODE /Gm- /EHsc /RTC1 /MDd /GS /fp:precise /permissive- /Zc:wchar_t /Zc:forScope /Zc:inline /Fo"DEBUG\\" /Fd"DEBUG\VC142.PDB" /Gd /TC /analyze- /FC C:\USERS\ANTON\ADCS SPACE CENTER\CPP VS\SOFA\SRC\PN00B.C
^C:\USERS\ANTON\ADCS SPACE CENTER\CPP VS\SOFA\SRC\PN06.C
/c /ZI /JMC /nologo /W3 /WX- /diagnostics:column /sdl /Od /Oy- /D WIN32 /D _DEBUG /D _CONSOLE /D _UNICODE /D UNICODE /Gm- /EHsc /RTC1 /MDd /GS /fp:precise /permissive- /Zc:wchar_t /Zc:forScope /Zc:inline /Fo"DEBUG\\" /Fd"DEBUG\VC142.PDB" /Gd /TC /analyze- /FC C:\USERS\ANTON\ADCS SPACE CENTER\CPP VS\SOFA\SRC\PN06.C
^C:\USERS\ANTON\ADCS SPACE CENTER\CPP VS\SOFA\SRC\PN06A.C
/c /ZI /JMC /nologo /W3 /WX- /diagnostics:column /sdl /Od /Oy- /D WIN32 /D _DEBUG /D _CONSOLE /D _UNICODE /D UNICODE /Gm- /EHsc /RTC1 /MDd /GS /fp:precise /permissive- /Zc:wchar_t /Zc:forScope /Zc:inline /Fo"DEBUG\\" /Fd"DEBUG\VC142.PDB" /Gd /TC /analyze- /FC C:\USERS\ANTON\ADCS SPACE CENTER\CPP VS\SOFA\SRC\PN06A.C
^C:\USERS\ANTON\ADCS SPACE CENTER\CPP VS\SOFA\SRC\PNM00A.C
/c /ZI /JMC /nologo /W3 /WX- /diagnostics:column /sdl /Od /Oy- /D WIN32 /D _DEBUG /D _CONSOLE /D _UNICODE /D UNICODE /Gm- /EHsc /RTC1 /MDd /GS /fp:precise /permissive- /Zc:wchar_t /Zc:forScope /Zc:inline /Fo"DEBUG\\" /Fd"DEBUG\VC142.PDB" /Gd /TC /analyze- /FC C:\USERS\ANTON\ADCS SPACE CENTER\CPP VS\SOFA\SRC\PNM00A.C
^C:\USERS\ANTON\ADCS SPACE CENTER\CPP VS\SOFA\SRC\PNM00B.C
/c /ZI /JMC /nologo /W3 /WX- /diagnostics:column /sdl /Od /Oy- /D WIN32 /D _DEBUG /D _CONSOLE /D _UNICODE /D UNICODE /Gm- /EHsc /RTC1 /MDd /GS /fp:precise /permissive- /Zc:wchar_t /Zc:forScope /Zc:inline /Fo"DEBUG\\" /Fd"DEBUG\VC142.PDB" /Gd /TC /analyze- /FC C:\USERS\ANTON\ADCS SPACE CENTER\CPP VS\SOFA\SRC\PNM00B.C
^C:\USERS\ANTON\ADCS SPACE CENTER\CPP VS\SOFA\SRC\PNM06A.C
/c /ZI /JMC /nologo /W3 /WX- /diagnostics:column /sdl /Od /Oy- /D WIN32 /D _DEBUG /D _CONSOLE /D _UNICODE /D UNICODE /Gm- /EHsc /RTC1 /MDd /GS /fp:precise /permissive- /Zc:wchar_t /Zc:forScope /Zc:inline /Fo"DEBUG\\" /Fd"DEBUG\VC142.PDB" /Gd /TC /analyze- /FC C:\USERS\ANTON\ADCS SPACE CENTER\CPP VS\SOFA\SRC\PNM06A.C
^C:\USERS\ANTON\ADCS SPACE CENTER\CPP VS\SOFA\SRC\PNM80.C
/c /ZI /JMC /nologo /W3 /WX- /diagnostics:column /sdl /Od /Oy- /D WIN32 /D _DEBUG /D _CONSOLE /D _UNICODE /D UNICODE /Gm- /EHsc /RTC1 /MDd /GS /fp:precise /permissive- /Zc:wchar_t /Zc:forScope /Zc:inline /Fo"DEBUG\\" /Fd"DEBUG\VC142.PDB" /Gd /TC /analyze- /FC C:\USERS\ANTON\ADCS SPACE CENTER\CPP VS\SOFA\SRC\PNM80.C
^C:\USERS\ANTON\ADCS SPACE CENTER\CPP VS\SOFA\SRC\POM00.C
/c /ZI /JMC /nologo /W3 /WX- /diagnostics:column /sdl /Od /Oy- /D WIN32 /D _DEBUG /D _CONSOLE /D _UNICODE /D UNICODE /Gm- /EHsc /RTC1 /MDd /GS /fp:precise /permissive- /Zc:wchar_t /Zc:forScope /Zc:inline /Fo"DEBUG\\" /Fd"DEBUG\VC142.PDB" /Gd /TC /analyze- /FC C:\USERS\ANTON\ADCS SPACE CENTER\CPP VS\SOFA\SRC\POM00.C
^C:\USERS\ANTON\ADCS SPACE CENTER\CPP VS\SOFA\SRC\PPP.C
/c /ZI /JMC /nologo /W3 /WX- /diagnostics:column /sdl /Od /Oy- /D WIN32 /D _DEBUG /D _CONSOLE /D _UNICODE /D UNICODE /Gm- /EHsc /RTC1 /MDd /GS /fp:precise /permissive- /Zc:wchar_t /Zc:forScope /Zc:inline /Fo"DEBUG\\" /Fd"DEBUG\VC142.PDB" /Gd /TC /analyze- /FC C:\USERS\ANTON\ADCS SPACE CENTER\CPP VS\SOFA\SRC\PPP.C
^C:\USERS\ANTON\ADCS SPACE CENTER\CPP VS\SOFA\SRC\PPSP.C
/c /ZI /JMC /nologo /W3 /WX- /diagnostics:column /sdl /Od /Oy- /D WIN32 /D _DEBUG /D _CONSOLE /D _UNICODE /D UNICODE /Gm- /EHsc /RTC1 /MDd /GS /fp:precise /permissive- /Zc:wchar_t /Zc:forScope /Zc:inline /Fo"DEBUG\\" /Fd"DEBUG\VC142.PDB" /Gd /TC /analyze- /FC C:\USERS\ANTON\ADCS SPACE CENTER\CPP VS\SOFA\SRC\PPSP.C
^C:\USERS\ANTON\ADCS SPACE CENTER\CPP VS\SOFA\SRC\PR00.C
/c /ZI /JMC /nologo /W3 /WX- /diagnostics:column /sdl /Od /Oy- /D WIN32 /D _DEBUG /D _CONSOLE /D _UNICODE /D UNICODE /Gm- /EHsc /RTC1 /MDd /GS /fp:precise /permissive- /Zc:wchar_t /Zc:forScope /Zc:inline /Fo"DEBUG\\" /Fd"DEBUG\VC142.PDB" /Gd /TC /analyze- /FC C:\USERS\ANTON\ADCS SPACE CENTER\CPP VS\SOFA\SRC\PR00.C
^C:\USERS\ANTON\ADCS SPACE CENTER\CPP VS\SOFA\SRC\PREC76.C
/c /ZI /JMC /nologo /W3 /WX- /diagnostics:column /sdl /Od /Oy- /D WIN32 /D _DEBUG /D _CONSOLE /D _UNICODE /D UNICODE /Gm- /EHsc /RTC1 /MDd /GS /fp:precise /permissive- /Zc:wchar_t /Zc:forScope /Zc:inline /Fo"DEBUG\\" /Fd"DEBUG\VC142.PDB" /Gd /TC /analyze- /FC C:\USERS\ANTON\ADCS SPACE CENTER\CPP VS\SOFA\SRC\PREC76.C
^C:\USERS\ANTON\ADCS SPACE CENTER\CPP VS\SOFA\SRC\PV2P.C
/c /ZI /JMC /nologo /W3 /WX- /diagnostics:column /sdl /Od /Oy- /D WIN32 /D _DEBUG /D _CONSOLE /D _UNICODE /D UNICODE /Gm- /EHsc /RTC1 /MDd /GS /fp:precise /permissive- /Zc:wchar_t /Zc:forScope /Zc:inline /Fo"DEBUG\\" /Fd"DEBUG\VC142.PDB" /Gd /TC /analyze- /FC C:\USERS\ANTON\ADCS SPACE CENTER\CPP VS\SOFA\SRC\PV2P.C
^C:\USERS\ANTON\ADCS SPACE CENTER\CPP VS\SOFA\SRC\PV2S.C
/c /ZI /JMC /nologo /W3 /WX- /diagnostics:column /sdl /Od /Oy- /D WIN32 /D _DEBUG /D _CONSOLE /D _UNICODE /D UNICODE /Gm- /EHsc /RTC1 /MDd /GS /fp:precise /permissive- /Zc:wchar_t /Zc:forScope /Zc:inline /Fo"DEBUG\\" /Fd"DEBUG\VC142.PDB" /Gd /TC /analyze- /FC C:\USERS\ANTON\ADCS SPACE CENTER\CPP VS\SOFA\SRC\PV2S.C
^C:\USERS\ANTON\ADCS SPACE CENTER\CPP VS\SOFA\SRC\PVDPV.C
/c /ZI /JMC /nologo /W3 /WX- /diagnostics:column /sdl /Od /Oy- /D WIN32 /D _DEBUG /D _CONSOLE /D _UNICODE /D UNICODE /Gm- /EHsc /RTC1 /MDd /GS /fp:precise /permissive- /Zc:wchar_t /Zc:forScope /Zc:inline /Fo"DEBUG\\" /Fd"DEBUG\VC142.PDB" /Gd /TC /analyze- /FC C:\USERS\ANTON\ADCS SPACE CENTER\CPP VS\SOFA\SRC\PVDPV.C
^C:\USERS\ANTON\ADCS SPACE CENTER\CPP VS\SOFA\SRC\PVM.C
/c /ZI /JMC /nologo /W3 /WX- /diagnostics:column /sdl /Od /Oy- /D WIN32 /D _DEBUG /D _CONSOLE /D _UNICODE /D UNICODE /Gm- /EHsc /RTC1 /MDd /GS /fp:precise /permissive- /Zc:wchar_t /Zc:forScope /Zc:inline /Fo"DEBUG\\" /Fd"DEBUG\VC142.PDB" /Gd /TC /analyze- /FC C:\USERS\ANTON\ADCS SPACE CENTER\CPP VS\SOFA\SRC\PVM.C
^C:\USERS\ANTON\ADCS SPACE CENTER\CPP VS\SOFA\SRC\PVMPV.C
/c /ZI /JMC /nologo /W3 /WX- /diagnostics:column /sdl /Od /Oy- /D WIN32 /D _DEBUG /D _CONSOLE /D _UNICODE /D UNICODE /Gm- /EHsc /RTC1 /MDd /GS /fp:precise /permissive- /Zc:wchar_t /Zc:forScope /Zc:inline /Fo"DEBUG\\" /Fd"DEBUG\VC142.PDB" /Gd /TC /analyze- /FC C:\USERS\ANTON\ADCS SPACE CENTER\CPP VS\SOFA\SRC\PVMPV.C
^C:\USERS\ANTON\ADCS SPACE CENTER\CPP VS\SOFA\SRC\PVPPV.C
/c /ZI /JMC /nologo /W3 /WX- /diagnostics:column /sdl /Od /Oy- /D WIN32 /D _DEBUG /D _CONSOLE /D _UNICODE /D UNICODE /Gm- /EHsc /RTC1 /MDd /GS /fp:precise /permissive- /Zc:wchar_t /Zc:forScope /Zc:inline /Fo"DEBUG\\" /Fd"DEBUG\VC142.PDB" /Gd /TC /analyze- /FC C:\USERS\ANTON\ADCS SPACE CENTER\CPP VS\SOFA\SRC\PVPPV.C
^C:\USERS\ANTON\ADCS SPACE CENTER\CPP VS\SOFA\SRC\PVSTAR.C
/c /ZI /JMC /nologo /W3 /WX- /diagnostics:column /sdl /Od /Oy- /D WIN32 /D _DEBUG /D _CONSOLE /D _UNICODE /D UNICODE /Gm- /EHsc /RTC1 /MDd /GS /fp:precise /permissive- /Zc:wchar_t /Zc:forScope /Zc:inline /Fo"DEBUG\\" /Fd"DEBUG\VC142.PDB" /Gd /TC /analyze- /FC C:\USERS\ANTON\ADCS SPACE CENTER\CPP VS\SOFA\SRC\PVSTAR.C
^C:\USERS\ANTON\ADCS SPACE CENTER\CPP VS\SOFA\SRC\PVTOB.C
/c /ZI /JMC /nologo /W3 /WX- /diagnostics:column /sdl /Od /Oy- /D WIN32 /D _DEBUG /D _CONSOLE /D _UNICODE /D UNICODE /Gm- /EHsc /RTC1 /MDd /GS /fp:precise /permissive- /Zc:wchar_t /Zc:forScope /Zc:inline /Fo"DEBUG\\" /Fd"DEBUG\VC142.PDB" /Gd /TC /analyze- /FC C:\USERS\ANTON\ADCS SPACE CENTER\CPP VS\SOFA\SRC\PVTOB.C
^C:\USERS\ANTON\ADCS SPACE CENTER\CPP VS\SOFA\SRC\PVU.C
/c /ZI /JMC /nologo /W3 /WX- /diagnostics:column /sdl /Od /Oy- /D WIN32 /D _DEBUG /D _CONSOLE /D _UNICODE /D UNICODE /Gm- /EHsc /RTC1 /MDd /GS /fp:precise /permissive- /Zc:wchar_t /Zc:forScope /Zc:inline /Fo"DEBUG\\" /Fd"DEBUG\VC142.PDB" /Gd /TC /analyze- /FC C:\USERS\ANTON\ADCS SPACE CENTER\CPP VS\SOFA\SRC\PVU.C
^C:\USERS\ANTON\ADCS SPACE CENTER\CPP VS\SOFA\SRC\PVUP.C
/c /ZI /JMC /nologo /W3 /WX- /diagnostics:column /sdl /Od /Oy- /D WIN32 /D _DEBUG /D _CONSOLE /D _UNICODE /D UNICODE /Gm- /EHsc /RTC1 /MDd /GS /fp:precise /permissive- /Zc:wchar_t /Zc:forScope /Zc:inline /Fo"DEBUG\\" /Fd"DEBUG\VC142.PDB" /Gd /TC /analyze- /FC C:\USERS\ANTON\ADCS SPACE CENTER\CPP VS\SOFA\SRC\PVUP.C
^C:\USERS\ANTON\ADCS SPACE CENTER\CPP VS\SOFA\SRC\PVXPV.C
/c /ZI /JMC /nologo /W3 /WX- /diagnostics:column /sdl /Od /Oy- /D WIN32 /D _DEBUG /D _CONSOLE /D _UNICODE /D UNICODE /Gm- /EHsc /RTC1 /MDd /GS /fp:precise /permissive- /Zc:wchar_t /Zc:forScope /Zc:inline /Fo"DEBUG\\" /Fd"DEBUG\VC142.PDB" /Gd /TC /analyze- /FC C:\USERS\ANTON\ADCS SPACE CENTER\CPP VS\SOFA\SRC\PVXPV.C
^C:\USERS\ANTON\ADCS SPACE CENTER\CPP VS\SOFA\SRC\PXP.C
/c /ZI /JMC /nologo /W3 /WX- /diagnostics:column /sdl /Od /Oy- /D WIN32 /D _DEBUG /D _CONSOLE /D _UNICODE /D UNICODE /Gm- /EHsc /RTC1 /MDd /GS /fp:precise /permissive- /Zc:wchar_t /Zc:forScope /Zc:inline /Fo"DEBUG\\" /Fd"DEBUG\VC142.PDB" /Gd /TC /analyze- /FC C:\USERS\ANTON\ADCS SPACE CENTER\CPP VS\SOFA\SRC\PXP.C
^C:\USERS\ANTON\ADCS SPACE CENTER\CPP VS\SOFA\SRC\REFCO.C
/c /ZI /JMC /nologo /W3 /WX- /diagnostics:column /sdl /Od /Oy- /D WIN32 /D _DEBUG /D _CONSOLE /D _UNICODE /D UNICODE /Gm- /EHsc /RTC1 /MDd /GS /fp:precise /permissive- /Zc:wchar_t /Zc:forScope /Zc:inline /Fo"DEBUG\\" /Fd"DEBUG\VC142.PDB" /Gd /TC /analyze- /FC C:\USERS\ANTON\ADCS SPACE CENTER\CPP VS\SOFA\SRC\REFCO.C
^C:\USERS\ANTON\ADCS SPACE CENTER\CPP VS\SOFA\SRC\RM2V.C
/c /ZI /JMC /nologo /W3 /WX- /diagnostics:column /sdl /Od /Oy- /D WIN32 /D _DEBUG /D _CONSOLE /D _UNICODE /D UNICODE /Gm- /EHsc /RTC1 /MDd /GS /fp:precise /permissive- /Zc:wchar_t /Zc:forScope /Zc:inline /Fo"DEBUG\\" /Fd"DEBUG\VC142.PDB" /Gd /TC /analyze- /FC C:\USERS\ANTON\ADCS SPACE CENTER\CPP VS\SOFA\SRC\RM2V.C
^C:\USERS\ANTON\ADCS SPACE CENTER\CPP VS\SOFA\SRC\RV2M.C
/c /ZI /JMC /nologo /W3 /WX- /diagnostics:column /sdl /Od /Oy- /D WIN32 /D _DEBUG /D _CONSOLE /D _UNICODE /D UNICODE /Gm- /EHsc /RTC1 /MDd /GS /fp:precise /permissive- /Zc:wchar_t /Zc:forScope /Zc:inline /Fo"DEBUG\\" /Fd"DEBUG\VC142.PDB" /Gd /TC /analyze- /FC C:\USERS\ANTON\ADCS SPACE CENTER\CPP VS\SOFA\SRC\RV2M.C
^C:\USERS\ANTON\ADCS SPACE CENTER\CPP VS\SOFA\SRC\RX.C
/c /ZI /JMC /nologo /W3 /WX- /diagnostics:column /sdl /Od /Oy- /D WIN32 /D _DEBUG /D _CONSOLE /D _UNICODE /D UNICODE /Gm- /EHsc /RTC1 /MDd /GS /fp:precise /permissive- /Zc:wchar_t /Zc:forScope /Zc:inline /Fo"DEBUG\\" /Fd"DEBUG\VC142.PDB" /Gd /TC /analyze- /FC C:\USERS\ANTON\ADCS SPACE CENTER\CPP VS\SOFA\SRC\RX.C
^C:\USERS\ANTON\ADCS SPACE CENTER\CPP VS\SOFA\SRC\RXP.C
/c /ZI /JMC /nologo /W3 /WX- /diagnostics:column /sdl /Od /Oy- /D WIN32 /D _DEBUG /D _CONSOLE /D _UNICODE /D UNICODE /Gm- /EHsc /RTC1 /MDd /GS /fp:precise /permissive- /Zc:wchar_t /Zc:forScope /Zc:inline /Fo"DEBUG\\" /Fd"DEBUG\VC142.PDB" /Gd /TC /analyze- /FC C:\USERS\ANTON\ADCS SPACE CENTER\CPP VS\SOFA\SRC\RXP.C
^C:\USERS\ANTON\ADCS SPACE CENTER\CPP VS\SOFA\SRC\RXPV.C
/c /ZI /JMC /nologo /W3 /WX- /diagnostics:column /sdl /Od /Oy- /D WIN32 /D _DEBUG /D _CONSOLE /D _UNICODE /D UNICODE /Gm- /EHsc /RTC1 /MDd /GS /fp:precise /permissive- /Zc:wchar_t /Zc:forScope /Zc:inline /Fo"DEBUG\\" /Fd"DEBUG\VC142.PDB" /Gd /TC /analyze- /FC C:\USERS\ANTON\ADCS SPACE CENTER\CPP VS\SOFA\SRC\RXPV.C
^C:\USERS\ANTON\ADCS SPACE CENTER\CPP VS\SOFA\SRC\RXR.C
/c /ZI /JMC /nologo /W3 /WX- /diagnostics:column /sdl /Od /Oy- /D WIN32 /D _DEBUG /D _CONSOLE /D _UNICODE /D UNICODE /Gm- /EHsc /RTC1 /MDd /GS /fp:precise /permissive- /Zc:wchar_t /Zc:forScope /Zc:inline /Fo"DEBUG\\" /Fd"DEBUG\VC142.PDB" /Gd /TC /analyze- /FC C:\USERS\ANTON\ADCS SPACE CENTER\CPP VS\SOFA\SRC\RXR.C
^C:\USERS\ANTON\ADCS SPACE CENTER\CPP VS\SOFA\SRC\RY.C
/c /ZI /JMC /nologo /W3 /WX- /diagnostics:column /sdl /Od /Oy- /D WIN32 /D _DEBUG /D _CONSOLE /D _UNICODE /D UNICODE /Gm- /EHsc /RTC1 /MDd /GS /fp:precise /permissive- /Zc:wchar_t /Zc:forScope /Zc:inline /Fo"DEBUG\\" /Fd"DEBUG\VC142.PDB" /Gd /TC /analyze- /FC C:\USERS\ANTON\ADCS SPACE CENTER\CPP VS\SOFA\SRC\RY.C
^C:\USERS\ANTON\ADCS SPACE CENTER\CPP VS\SOFA\SRC\RZ.C
/c /ZI /JMC /nologo /W3 /WX- /diagnostics:column /sdl /Od /Oy- /D WIN32 /D _DEBUG /D _CONSOLE /D _UNICODE /D UNICODE /Gm- /EHsc /RTC1 /MDd /GS /fp:precise /permissive- /Zc:wchar_t /Zc:forScope /Zc:inline /Fo"DEBUG\\" /Fd"DEBUG\VC142.PDB" /Gd /TC /analyze- /FC C:\USERS\ANTON\ADCS SPACE CENTER\CPP VS\SOFA\SRC\RZ.C
^C:\USERS\ANTON\ADCS SPACE CENTER\CPP VS\SOFA\SRC\S00.C
/c /ZI /JMC /nologo /W3 /WX- /diagnostics:column /sdl /Od /Oy- /D WIN32 /D _DEBUG /D _CONSOLE /D _UNICODE /D UNICODE /Gm- /EHsc /RTC1 /MDd /GS /fp:precise /permissive- /Zc:wchar_t /Zc:forScope /Zc:inline /Fo"DEBUG\\" /Fd"DEBUG\VC142.PDB" /Gd /TC /analyze- /FC C:\USERS\ANTON\ADCS SPACE CENTER\CPP VS\SOFA\SRC\S00.C
^C:\USERS\ANTON\ADCS SPACE CENTER\CPP VS\SOFA\SRC\S00A.C
/c /ZI /JMC /nologo /W3 /WX- /diagnostics:column /sdl /Od /Oy- /D WIN32 /D _DEBUG /D _CONSOLE /D _UNICODE /D UNICODE /Gm- /EHsc /RTC1 /MDd /GS /fp:precise /permissive- /Zc:wchar_t /Zc:forScope /Zc:inline /Fo"DEBUG\\" /Fd"DEBUG\VC142.PDB" /Gd /TC /analyze- /FC C:\USERS\ANTON\ADCS SPACE CENTER\CPP VS\SOFA\SRC\S00A.C
^C:\USERS\ANTON\ADCS SPACE CENTER\CPP VS\SOFA\SRC\S00B.C
/c /ZI /JMC /nologo /W3 /WX- /diagnostics:column /sdl /Od /Oy- /D WIN32 /D _DEBUG /D _CONSOLE /D _UNICODE /D UNICODE /Gm- /EHsc /RTC1 /MDd /GS /fp:precise /permissive- /Zc:wchar_t /Zc:forScope /Zc:inline /Fo"DEBUG\\" /Fd"DEBUG\VC142.PDB" /Gd /TC /analyze- /FC C:\USERS\ANTON\ADCS SPACE CENTER\CPP VS\SOFA\SRC\S00B.C
^C:\USERS\ANTON\ADCS SPACE CENTER\CPP VS\SOFA\SRC\S06.C
/c /ZI /JMC /nologo /W3 /WX- /diagnostics:column /sdl /Od /Oy- /D WIN32 /D _DEBUG /D _CONSOLE /D _UNICODE /D UNICODE /Gm- /EHsc /RTC1 /MDd /GS /fp:precise /permissive- /Zc:wchar_t /Zc:forScope /Zc:inline /Fo"DEBUG\\" /Fd"DEBUG\VC142.PDB" /Gd /TC /analyze- /FC C:\USERS\ANTON\ADCS SPACE CENTER\CPP VS\SOFA\SRC\S06.C
^C:\USERS\ANTON\ADCS SPACE CENTER\CPP VS\SOFA\SRC\S06A.C
/c /ZI /JMC /nologo /W3 /WX- /diagnostics:column /sdl /Od /Oy- /D WIN32 /D _DEBUG /D _CONSOLE /D _UNICODE /D UNICODE /Gm- /EHsc /RTC1 /MDd /GS /fp:precise /permissive- /Zc:wchar_t /Zc:forScope /Zc:inline /Fo"DEBUG\\" /Fd"DEBUG\VC142.PDB" /Gd /TC /analyze- /FC C:\USERS\ANTON\ADCS SPACE CENTER\CPP VS\SOFA\SRC\S06A.C
^C:\USERS\ANTON\ADCS SPACE CENTER\CPP VS\SOFA\SRC\S2C.C
/c /ZI /JMC /nologo /W3 /WX- /diagnostics:column /sdl /Od /Oy- /D WIN32 /D _DEBUG /D _CONSOLE /D _UNICODE /D UNICODE /Gm- /EHsc /RTC1 /MDd /GS /fp:precise /permissive- /Zc:wchar_t /Zc:forScope /Zc:inline /Fo"DEBUG\\" /Fd"DEBUG\VC142.PDB" /Gd /TC /analyze- /FC C:\USERS\ANTON\ADCS SPACE CENTER\CPP VS\SOFA\SRC\S2C.C
^C:\USERS\ANTON\ADCS SPACE CENTER\CPP VS\SOFA\SRC\S2P.C
/c /ZI /JMC /nologo /W3 /WX- /diagnostics:column /sdl /Od /Oy- /D WIN32 /D _DEBUG /D _CONSOLE /D _UNICODE /D UNICODE /Gm- /EHsc /RTC1 /MDd /GS /fp:precise /permissive- /Zc:wchar_t /Zc:forScope /Zc:inline /Fo"DEBUG\\" /Fd"DEBUG\VC142.PDB" /Gd /TC /analyze- /FC C:\USERS\ANTON\ADCS SPACE CENTER\CPP VS\SOFA\SRC\S2P.C
^C:\USERS\ANTON\ADCS SPACE CENTER\CPP VS\SOFA\SRC\S2PV.C
/c /ZI /JMC /nologo /W3 /WX- /diagnostics:column /sdl /Od /Oy- /D WIN32 /D _DEBUG /D _CONSOLE /D _UNICODE /D UNICODE /Gm- /EHsc /RTC1 /MDd /GS /fp:precise /permissive- /Zc:wchar_t /Zc:forScope /Zc:inline /Fo"DEBUG\\" /Fd"DEBUG\VC142.PDB" /Gd /TC /analyze- /FC C:\USERS\ANTON\ADCS SPACE CENTER\CPP VS\SOFA\SRC\S2PV.C
^C:\USERS\ANTON\ADCS SPACE CENTER\CPP VS\SOFA\SRC\S2XPV.C
/c /ZI /JMC /nologo /W3 /WX- /diagnostics:column /sdl /Od /Oy- /D WIN32 /D _DEBUG /D _CONSOLE /D _UNICODE /D UNICODE /Gm- /EHsc /RTC1 /MDd /GS /fp:precise /permissive- /Zc:wchar_t /Zc:forScope /Zc:inline /Fo"DEBUG\\" /Fd"DEBUG\VC142.PDB" /Gd /TC /analyze- /FC C:\USERS\ANTON\ADCS SPACE CENTER\CPP VS\SOFA\SRC\S2XPV.C
^C:\USERS\ANTON\ADCS SPACE CENTER\CPP VS\SOFA\SRC\SEPP.C
/c /ZI /JMC /nologo /W3 /WX- /diagnostics:column /sdl /Od /Oy- /D WIN32 /D _DEBUG /D _CONSOLE /D _UNICODE /D UNICODE /Gm- /EHsc /RTC1 /MDd /GS /fp:precise /permissive- /Zc:wchar_t /Zc:forScope /Zc:inline /Fo"DEBUG\\" /Fd"DEBUG\VC142.PDB" /Gd /TC /analyze- /FC C:\USERS\ANTON\ADCS SPACE CENTER\CPP VS\SOFA\SRC\SEPP.C
^C:\USERS\ANTON\ADCS SPACE CENTER\CPP VS\SOFA\SRC\SEPS.C
/c /ZI /JMC /nologo /W3 /WX- /diagnostics:column /sdl /Od /Oy- /D WIN32 /D _DEBUG /D _CONSOLE /D _UNICODE /D UNICODE /Gm- /EHsc /RTC1 /MDd /GS /fp:precise /permissive- /Zc:wchar_t /Zc:forScope /Zc:inline /Fo"DEBUG\\" /Fd"DEBUG\VC142.PDB" /Gd /TC /analyze- /FC C:\USERS\ANTON\ADCS SPACE CENTER\CPP VS\SOFA\SRC\SEPS.C
^C:\USERS\ANTON\ADCS SPACE CENTER\CPP VS\SOFA\SRC\SP00.C
/c /ZI /JMC /nologo /W3 /WX- /diagnostics:column /sdl /Od /Oy- /D WIN32 /D _DEBUG /D _CONSOLE /D _UNICODE /D UNICODE /Gm- /EHsc /RTC1 /MDd /GS /fp:precise /permissive- /Zc:wchar_t /Zc:forScope /Zc:inline /Fo"DEBUG\\" /Fd"DEBUG\VC142.PDB" /Gd /TC /analyze- /FC C:\USERS\ANTON\ADCS SPACE CENTER\CPP VS\SOFA\SRC\SP00.C
^C:\USERS\ANTON\ADCS SPACE CENTER\CPP VS\SOFA\SRC\STARPM.C
/c /ZI /JMC /nologo /W3 /WX- /diagnostics:column /sdl /Od /Oy- /D WIN32 /D _DEBUG /D _CONSOLE /D _UNICODE /D UNICODE /Gm- /EHsc /RTC1 /MDd /GS /fp:precise /permissive- /Zc:wchar_t /Zc:forScope /Zc:inline /Fo"DEBUG\\" /Fd"DEBUG\VC142.PDB" /Gd /TC /analyze- /FC C:\USERS\ANTON\ADCS SPACE CENTER\CPP VS\SOFA\SRC\STARPM.C
^C:\USERS\ANTON\ADCS SPACE CENTER\CPP VS\SOFA\SRC\STARPV.C
/c /ZI /JMC /nologo /W3 /WX- /diagnostics:column /sdl /Od /Oy- /D WIN32 /D _DEBUG /D _CONSOLE /D _UNICODE /D UNICODE /Gm- /EHsc /RTC1 /MDd /GS /fp:precise /permissive- /Zc:wchar_t /Zc:forScope /Zc:inline /Fo"DEBUG\\" /Fd"DEBUG\VC142.PDB" /Gd /TC /analyze- /FC C:\USERS\ANTON\ADCS SPACE CENTER\CPP VS\SOFA\SRC\STARPV.C
^C:\USERS\ANTON\ADCS SPACE CENTER\CPP VS\SOFA\SRC\SXP.C
/c /ZI /JMC /nologo /W3 /WX- /diagnostics:column /sdl /Od /Oy- /D WIN32 /D _DEBUG /D _CONSOLE /D _UNICODE /D UNICODE /Gm- /EHsc /RTC1 /MDd /GS /fp:precise /permissive- /Zc:wchar_t /Zc:forScope /Zc:inline /Fo"DEBUG\\" /Fd"DEBUG\VC142.PDB" /Gd /TC /analyze- /FC C:\USERS\ANTON\ADCS SPACE CENTER\CPP VS\SOFA\SRC\SXP.C
^C:\USERS\ANTON\ADCS SPACE CENTER\CPP VS\SOFA\SRC\SXPV.C
/c /ZI /JMC /nologo /W3 /WX- /diagnostics:column /sdl /Od /Oy- /D WIN32 /D _DEBUG /D _CONSOLE /D _UNICODE /D UNICODE /Gm- /EHsc /RTC1 /MDd /GS /fp:precise /permissive- /Zc:wchar_t /Zc:forScope /Zc:inline /Fo"DEBUG\\" /Fd"DEBUG\VC142.PDB" /Gd /TC /analyze- /FC C:\USERS\ANTON\ADCS SPACE CENTER\CPP VS\SOFA\SRC\SXPV.C
^C:\USERS\ANTON\ADCS SPACE CENTER\CPP VS\SOFA\SRC\TAITT.C
/c /ZI /JMC /nologo /W3 /WX- /diagnostics:column /sdl /Od /Oy- /D WIN32 /D _DEBUG /D _CONSOLE /D _UNICODE /D UNICODE /Gm- /EHsc /RTC1 /MDd /GS /fp:precise /permissive- /Zc:wchar_t /Zc:forScope /Zc:inline /Fo"DEBUG\\" /Fd"DEBUG\VC142.PDB" /Gd /TC /analyze- /FC C:\USERS\ANTON\ADCS SPACE CENTER\CPP VS\SOFA\SRC\TAITT.C
^C:\USERS\ANTON\ADCS SPACE CENTER\CPP VS\SOFA\SRC\TAIUT1.C
/c /ZI /JMC /nologo /W3 /WX- /diagnostics:column /sdl /Od /Oy- /D WIN32 /D _DEBUG /D _CONSOLE /D _UNICODE /D UNICODE /Gm- /EHsc /RTC1 /MDd /GS /fp:precise /permissive- /Zc:wchar_t /Zc:forScope /Zc:inline /Fo"DEBUG\\" /Fd"DEBUG\VC142.PDB" /Gd /TC /analyze- /FC C:\USERS\ANTON\ADCS SPACE CENTER\CPP VS\SOFA\SRC\TAIUT1.C
^C:\USERS\ANTON\ADCS SPACE CENTER\CPP VS\SOFA\SRC\TAIUTC.C
/c /ZI /JMC /nologo /W3 /WX- /diagnostics:column /sdl /Od /Oy- /D WIN32 /D _DEBUG /D _CONSOLE /D _UNICODE /D UNICODE /Gm- /EHsc /RTC1 /MDd /GS /fp:precise /permissive- /Zc:wchar_t /Zc:forScope /Zc:inline /Fo"DEBUG\\" /Fd"DEBUG\VC142.PDB" /Gd /TC /analyze- /FC C:\USERS\ANTON\ADCS SPACE CENTER\CPP VS\SOFA\SRC\TAIUTC.C
^C:\USERS\ANTON\ADCS SPACE CENTER\CPP VS\SOFA\SRC\TCBTDB.C
/c /ZI /JMC /nologo /W3 /WX- /diagnostics:column /sdl /Od /Oy- /D WIN32 /D _DEBUG /D _CONSOLE /D _UNICODE /D UNICODE /Gm- /EHsc /RTC1 /MDd /GS /fp:precise /permissive- /Zc:wchar_t /Zc:forScope /Zc:inline /Fo"DEBUG\\" /Fd"DEBUG\VC142.PDB" /Gd /TC /analyze- /FC C:\USERS\ANTON\ADCS SPACE CENTER\CPP VS\SOFA\SRC\TCBTDB.C
^C:\USERS\ANTON\ADCS SPACE CENTER\CPP VS\SOFA\SRC\TCGTT.C
/c /ZI /JMC /nologo /W3 /WX- /diagnostics:column /sdl /Od /Oy- /D WIN32 /D _DEBUG /D _CONSOLE /D _UNICODE /D UNICODE /Gm- /EHsc /RTC1 /MDd /GS /fp:precise /permissive- /Zc:wchar_t /Zc:forScope /Zc:inline /Fo"DEBUG\\" /Fd"DEBUG\VC142.PDB" /Gd /TC /analyze- /FC C:\USERS\ANTON\ADCS SPACE CENTER\CPP VS\SOFA\SRC\TCGTT.C
^C:\USERS\ANTON\ADCS SPACE CENTER\CPP VS\SOFA\SRC\TDBTCB.C
/c /ZI /JMC /nologo /W3 /WX- /diagnostics:column /sdl /Od /Oy- /D WIN32 /D _DEBUG /D _CONSOLE /D _UNICODE /D UNICODE /Gm- /EHsc /RTC1 /MDd /GS /fp:precise /permissive- /Zc:wchar_t /Zc:forScope /Zc:inline /Fo"DEBUG\\" /Fd"DEBUG\VC142.PDB" /Gd /TC /analyze- /FC C:\USERS\ANTON\ADCS SPACE CENTER\CPP VS\SOFA\SRC\TDBTCB.C
^C:\USERS\ANTON\ADCS SPACE CENTER\CPP VS\SOFA\SRC\TDBTT.C
/c /ZI /JMC /nologo /W3 /WX- /diagnostics:column /sdl /Od /Oy- /D WIN32 /D _DEBUG /D _CONSOLE /D _UNICODE /D UNICODE /Gm- /EHsc /RTC1 /MDd /GS /fp:precise /permissive- /Zc:wchar_t /Zc:forScope /Zc:inline /Fo"DEBUG\\" /Fd"DEBUG\VC142.PDB" /Gd /TC /analyze- /FC C:\USERS\ANTON\ADCS SPACE CENTER\CPP VS\SOFA\SRC\TDBTT.C
^C:\USERS\ANTON\ADCS SPACE CENTER\CPP VS\SOFA\SRC\TF2A.C
/c /ZI /JMC /nologo /W3 /WX- /diagnostics:column /sdl /Od /Oy- /D WIN32 /D _DEBUG /D _CONSOLE /D _UNICODE /D UNICODE /Gm- /EHsc /RTC1 /MDd /GS /fp:precise /permissive- /Zc:wchar_t /Zc:forScope /Zc:inline /Fo"DEBUG\\" /Fd"DEBUG\VC142.PDB" /Gd /TC /analyze- /FC C:\USERS\ANTON\ADCS SPACE CENTER\CPP VS\SOFA\SRC\TF2A.C
^C:\USERS\ANTON\ADCS SPACE CENTER\CPP VS\SOFA\SRC\TF2D.C
/c /ZI /JMC /nologo /W3 /WX- /diagnostics:column /sdl /Od /Oy- /D WIN32 /D _DEBUG /D _CONSOLE /D _UNICODE /D UNICODE /Gm- /EHsc /RTC1 /MDd /GS /fp:precise /permissive- /Zc:wchar_t /Zc:forScope /Zc:inline /Fo"DEBUG\\" /Fd"DEBUG\VC142.PDB" /Gd /TC /analyze- /FC C:\USERS\ANTON\ADCS SPACE CENTER\CPP VS\SOFA\SRC\TF2D.C
^C:\USERS\ANTON\ADCS SPACE CENTER\CPP VS\SOFA\SRC\TPORS.C
/c /ZI /JMC /nologo /W3 /WX- /diagnostics:column /sdl /Od /Oy- /D WIN32 /D _DEBUG /D _CONSOLE /D _UNICODE /D UNICODE /Gm- /EHsc /RTC1 /MDd /GS /fp:precise /permissive- /Zc:wchar_t /Zc:forScope /Zc:inline /Fo"DEBUG\\" /Fd"DEBUG\VC142.PDB" /Gd /TC /analyze- /FC C:\USERS\ANTON\ADCS SPACE CENTER\CPP VS\SOFA\SRC\TPORS.C
^C:\USERS\ANTON\ADCS SPACE CENTER\CPP VS\SOFA\SRC\TPORV.C
/c /ZI /JMC /nologo /W3 /WX- /diagnostics:column /sdl /Od /Oy- /D WIN32 /D _DEBUG /D _CONSOLE /D _UNICODE /D UNICODE /Gm- /EHsc /RTC1 /MDd /GS /fp:precise /permissive- /Zc:wchar_t /Zc:forScope /Zc:inline /Fo"DEBUG\\" /Fd"DEBUG\VC142.PDB" /Gd /TC /analyze- /FC C:\USERS\ANTON\ADCS SPACE CENTER\CPP VS\SOFA\SRC\TPORV.C
^C:\USERS\ANTON\ADCS SPACE CENTER\CPP VS\SOFA\SRC\TPSTS.C
/c /ZI /JMC /nologo /W3 /WX- /diagnostics:column /sdl /Od /Oy- /D WIN32 /D _DEBUG /D _CONSOLE /D _UNICODE /D UNICODE /Gm- /EHsc /RTC1 /MDd /GS /fp:precise /permissive- /Zc:wchar_t /Zc:forScope /Zc:inline /Fo"DEBUG\\" /Fd"DEBUG\VC142.PDB" /Gd /TC /analyze- /FC C:\USERS\ANTON\ADCS SPACE CENTER\CPP VS\SOFA\SRC\TPSTS.C
^C:\USERS\ANTON\ADCS SPACE CENTER\CPP VS\SOFA\SRC\TPSTV.C
/c /ZI /JMC /nologo /W3 /WX- /diagnostics:column /sdl /Od /Oy- /D WIN32 /D _DEBUG /D _CONSOLE /D _UNICODE /D UNICODE /Gm- /EHsc /RTC1 /MDd /GS /fp:precise /permissive- /Zc:wchar_t /Zc:forScope /Zc:inline /Fo"DEBUG\\" /Fd"DEBUG\VC142.PDB" /Gd /TC /analyze- /FC C:\USERS\ANTON\ADCS SPACE CENTER\CPP VS\SOFA\SRC\TPSTV.C
^C:\USERS\ANTON\ADCS SPACE CENTER\CPP VS\SOFA\SRC\TPXES.C
/c /ZI /JMC /nologo /W3 /WX- /diagnostics:column /sdl /Od /Oy- /D WIN32 /D _DEBUG /D _CONSOLE /D _UNICODE /D UNICODE /Gm- /EHsc /RTC1 /MDd /GS /fp:precise /permissive- /Zc:wchar_t /Zc:forScope /Zc:inline /Fo"DEBUG\\" /Fd"DEBUG\VC142.PDB" /Gd /TC /analyze- /FC C:\USERS\ANTON\ADCS SPACE CENTER\CPP VS\SOFA\SRC\TPXES.C
^C:\USERS\ANTON\ADCS SPACE CENTER\CPP VS\SOFA\SRC\TPXEV.C
/c /ZI /JMC /nologo /W3 /WX- /diagnostics:column /sdl /Od /Oy- /D WIN32 /D _DEBUG /D _CONSOLE /D _UNICODE /D UNICODE /Gm- /EHsc /RTC1 /MDd /GS /fp:precise /permissive- /Zc:wchar_t /Zc:forScope /Zc:inline /Fo"DEBUG\\" /Fd"DEBUG\VC142.PDB" /Gd /TC /analyze- /FC C:\USERS\ANTON\ADCS SPACE CENTER\CPP VS\SOFA\SRC\TPXEV.C
^C:\USERS\ANTON\ADCS SPACE CENTER\CPP VS\SOFA\SRC\TR.C
/c /ZI /JMC /nologo /W3 /WX- /diagnostics:column /sdl /Od /Oy- /D WIN32 /D _DEBUG /D _CONSOLE /D _UNICODE /D UNICODE /Gm- /EHsc /RTC1 /MDd /GS /fp:precise /permissive- /Zc:wchar_t /Zc:forScope /Zc:inline /Fo"DEBUG\\" /Fd"DEBUG\VC142.PDB" /Gd /TC /analyze- /FC C:\USERS\ANTON\ADCS SPACE CENTER\CPP VS\SOFA\SRC\TR.C
^C:\USERS\ANTON\ADCS SPACE CENTER\CPP VS\SOFA\SRC\TRXP.C
/c /ZI /JMC /nologo /W3 /WX- /diagnostics:column /sdl /Od /Oy- /D WIN32 /D _DEBUG /D _CONSOLE /D _UNICODE /D UNICODE /Gm- /EHsc /RTC1 /MDd /GS /fp:precise /permissive- /Zc:wchar_t /Zc:forScope /Zc:inline /Fo"DEBUG\\" /Fd"DEBUG\VC142.PDB" /Gd /TC /analyze- /FC C:\USERS\ANTON\ADCS SPACE CENTER\CPP VS\SOFA\SRC\TRXP.C
^C:\USERS\ANTON\ADCS SPACE CENTER\CPP VS\SOFA\SRC\TRXPV.C
/c /ZI /JMC /nologo /W3 /WX- /diagnostics:column /sdl /Od /Oy- /D WIN32 /D _DEBUG /D _CONSOLE /D _UNICODE /D UNICODE /Gm- /EHsc /RTC1 /MDd /GS /fp:precise /permissive- /Zc:wchar_t /Zc:forScope /Zc:inline /Fo"DEBUG\\" /Fd"DEBUG\VC142.PDB" /Gd /TC /analyze- /FC C:\USERS\ANTON\ADCS SPACE CENTER\CPP VS\SOFA\SRC\TRXPV.C
^C:\USERS\ANTON\ADCS SPACE CENTER\CPP VS\SOFA\SRC\TTTAI.C
/c /ZI /JMC /nologo /W3 /WX- /diagnostics:column /sdl /Od /Oy- /D WIN32 /D _DEBUG /D _CONSOLE /D _UNICODE /D UNICODE /Gm- /EHsc /RTC1 /MDd /GS /fp:precise /permissive- /Zc:wchar_t /Zc:forScope /Zc:inline /Fo"DEBUG\\" /Fd"DEBUG\VC142.PDB" /Gd /TC /analyze- /FC C:\USERS\ANTON\ADCS SPACE CENTER\CPP VS\SOFA\SRC\TTTAI.C
^C:\USERS\ANTON\ADCS SPACE CENTER\CPP VS\SOFA\SRC\TTTCG.C
/c /ZI /JMC /nologo /W3 /WX- /diagnostics:column /sdl /Od /Oy- /D WIN32 /D _DEBUG /D _CONSOLE /D _UNICODE /D UNICODE /Gm- /EHsc /RTC1 /MDd /GS /fp:precise /permissive- /Zc:wchar_t /Zc:forScope /Zc:inline /Fo"DEBUG\\" /Fd"DEBUG\VC142.PDB" /Gd /TC /analyze- /FC C:\USERS\ANTON\ADCS SPACE CENTER\CPP VS\SOFA\SRC\TTTCG.C
^C:\USERS\ANTON\ADCS SPACE CENTER\CPP VS\SOFA\SRC\TTTDB.C
/c /ZI /JMC /nologo /W3 /WX- /diagnostics:column /sdl /Od /Oy- /D WIN32 /D _DEBUG /D _CONSOLE /D _UNICODE /D UNICODE /Gm- /EHsc /RTC1 /MDd /GS /fp:precise /permissive- /Zc:wchar_t /Zc:forScope /Zc:inline /Fo"DEBUG\\" /Fd"DEBUG\VC142.PDB" /Gd /TC /analyze- /FC C:\USERS\ANTON\ADCS SPACE CENTER\CPP VS\SOFA\SRC\TTTDB.C
^C:\USERS\ANTON\ADCS SPACE CENTER\CPP VS\SOFA\SRC\TTUT1.C
/c /ZI /JMC /nologo /W3 /WX- /diagnostics:column /sdl /Od /Oy- /D WIN32 /D _DEBUG /D _CONSOLE /D _UNICODE /D UNICODE /Gm- /EHsc /RTC1 /MDd /GS /fp:precise /permissive- /Zc:wchar_t /Zc:forScope /Zc:inline /Fo"DEBUG\\" /Fd"DEBUG\VC142.PDB" /Gd /TC /analyze- /FC C:\USERS\ANTON\ADCS SPACE CENTER\CPP VS\SOFA\SRC\TTUT1.C
^C:\USERS\ANTON\ADCS SPACE CENTER\CPP VS\SOFA\SRC\T_SOFA_C.C
/c /ZI /JMC /nologo /W3 /WX- /diagnostics:column /sdl /Od /Oy- /D WIN32 /D _DEBUG /D _CONSOLE /D _UNICODE /D UNICODE /Gm- /EHsc /RTC1 /MDd /GS /fp:precise /permissive- /Zc:wchar_t /Zc:forScope /Zc:inline /Fo"DEBUG\\" /Fd"DEBUG\VC142.PDB" /Gd /TC /analyze- /FC C:\USERS\ANTON\ADCS SPACE CENTER\CPP VS\SOFA\SRC\T_SOFA_C.C
^C:\USERS\ANTON\ADCS SPACE CENTER\CPP VS\SOFA\SRC\UT1TAI.C
/c /ZI /JMC /nologo /W3 /WX- /diagnostics:column /sdl /Od /Oy- /D WIN32 /D _DEBUG /D _CONSOLE /D _UNICODE /D UNICODE /Gm- /EHsc /RTC1 /MDd /GS /fp:precise /permissive- /Zc:wchar_t /Zc:forScope /Zc:inline /Fo"DEBUG\\" /Fd"DEBUG\VC142.PDB" /Gd /TC /analyze- /FC C:\USERS\ANTON\ADCS SPACE CENTER\CPP VS\SOFA\SRC\UT1TAI.C
^C:\USERS\ANTON\ADCS SPACE CENTER\CPP VS\SOFA\SRC\UT1TT.C
/c /ZI /JMC /nologo /W3 /WX- /diagnostics:column /sdl /Od /Oy- /D WIN32 /D _DEBUG /D _CONSOLE /D _UNICODE /D UNICODE /Gm- /EHsc /RTC1 /MDd /GS /fp:precise /permissive- /Zc:wchar_t /Zc:forScope /Zc:inline /Fo"DEBUG\\" /Fd"DEBUG\VC142.PDB" /Gd /TC /analyze- /FC C:\USERS\ANTON\ADCS SPACE CENTER\CPP VS\SOFA\SRC\UT1TT.C
^C:\USERS\ANTON\ADCS SPACE CENTER\CPP VS\SOFA\SRC\UT1UTC.C
/c /ZI /JMC /nologo /W3 /WX- /diagnostics:column /sdl /Od /Oy- /D WIN32 /D _DEBUG /D _CONSOLE /D _UNICODE /D UNICODE /Gm- /EHsc /RTC1 /MDd /GS /fp:precise /permissive- /Zc:wchar_t /Zc:forScope /Zc:inline /Fo"DEBUG\\" /Fd"DEBUG\VC142.PDB" /Gd /TC /analyze- /FC C:\USERS\ANTON\ADCS SPACE CENTER\CPP VS\SOFA\SRC\UT1UTC.C
^C:\USERS\ANTON\ADCS SPACE CENTER\CPP VS\SOFA\SRC\UTCTAI.C
/c /ZI /JMC /nologo /W3 /WX- /diagnostics:column /sdl /Od /Oy- /D WIN32 /D _DEBUG /D _CONSOLE /D _UNICODE /D UNICODE /Gm- /EHsc /RTC1 /MDd /GS /fp:precise /permissive- /Zc:wchar_t /Zc:forScope /Zc:inline /Fo"DEBUG\\" /Fd"DEBUG\VC142.PDB" /Gd /TC /analyze- /FC C:\USERS\ANTON\ADCS SPACE CENTER\CPP VS\SOFA\SRC\UTCTAI.C
^C:\USERS\ANTON\ADCS SPACE CENTER\CPP VS\SOFA\SRC\UTCUT1.C
/c /ZI /JMC /nologo /W3 /WX- /diagnostics:column /sdl /Od /Oy- /D WIN32 /D _DEBUG /D _CONSOLE /D _UNICODE /D UNICODE /Gm- /EHsc /RTC1 /MDd /GS /fp:precise /permissive- /Zc:wchar_t /Zc:forScope /Zc:inline /Fo"DEBUG\\" /Fd"DEBUG\VC142.PDB" /Gd /TC /analyze- /FC C:\USERS\ANTON\ADCS SPACE CENTER\CPP VS\SOFA\SRC\UTCUT1.C
^C:\USERS\ANTON\ADCS SPACE CENTER\CPP VS\SOFA\SRC\XY06.C
/c /ZI /JMC /nologo /W3 /WX- /diagnostics:column /sdl /Od /Oy- /D WIN32 /D _DEBUG /D _CONSOLE /D _UNICODE /D UNICODE /Gm- /EHsc /RTC1 /MDd /GS /fp:precise /permissive- /Zc:wchar_t /Zc:forScope /Zc:inline /Fo"DEBUG\\" /Fd"DEBUG\VC142.PDB" /Gd /TC /analyze- /FC C:\USERS\ANTON\ADCS SPACE CENTER\CPP VS\SOFA\SRC\XY06.C
^C:\USERS\ANTON\ADCS SPACE CENTER\CPP VS\SOFA\SRC\XYS00A.C
/c /ZI /JMC /nologo /W3 /WX- /diagnostics:column /sdl /Od /Oy- /D WIN32 /D _DEBUG /D _CONSOLE /D _UNICODE /D UNICODE /Gm- /EHsc /RTC1 /MDd /GS /fp:precise /permissive- /Zc:wchar_t /Zc:forScope /Zc:inline /Fo"DEBUG\\" /Fd"DEBUG\VC142.PDB" /Gd /TC /analyze- /FC C:\USERS\ANTON\ADCS SPACE CENTER\CPP VS\SOFA\SRC\XYS00A.C
^C:\USERS\ANTON\ADCS SPACE CENTER\CPP VS\SOFA\SRC\XYS00B.C
/c /ZI /JMC /nologo /W3 /WX- /diagnostics:column /sdl /Od /Oy- /D WIN32 /D _DEBUG /D _CONSOLE /D _UNICODE /D UNICODE /Gm- /EHsc /RTC1 /MDd /GS /fp:precise /permissive- /Zc:wchar_t /Zc:forScope /Zc:inline /Fo"DEBUG\\" /Fd"DEBUG\VC142.PDB" /Gd /TC /analyze- /FC C:\USERS\ANTON\ADCS SPACE CENTER\CPP VS\SOFA\SRC\XYS00B.C
^C:\USERS\ANTON\ADCS SPACE CENTER\CPP VS\SOFA\SRC\XYS06A.C
/c /ZI /JMC /nologo /W3 /WX- /diagnostics:column /sdl /Od /Oy- /D WIN32 /D _DEBUG /D _CONSOLE /D _UNICODE /D UNICODE /Gm- /EHsc /RTC1 /MDd /GS /fp:precise /permissive- /Zc:wchar_t /Zc:forScope /Zc:inline /Fo"DEBUG\\" /Fd"DEBUG\VC142.PDB" /Gd /TC /analyze- /FC C:\USERS\ANTON\ADCS SPACE CENTER\CPP VS\SOFA\SRC\XYS06A.C
^C:\USERS\ANTON\ADCS SPACE CENTER\CPP VS\SOFA\SRC\ZP.C
/c /ZI /JMC /nologo /W3 /WX- /diagnostics:column /sdl /Od /Oy- /D WIN32 /D _DEBUG /D _CONSOLE /D _UNICODE /D UNICODE /Gm- /EHsc /RTC1 /MDd /GS /fp:precise /permissive- /Zc:wchar_t /Zc:forScope /Zc:inline /Fo"DEBUG\\" /Fd"DEBUG\VC142.PDB" /Gd /TC /analyze- /FC C:\USERS\ANTON\ADCS SPACE CENTER\CPP VS\SOFA\SRC\ZP.C
^C:\USERS\ANTON\ADCS SPACE CENTER\CPP VS\SOFA\SRC\ZPV.C
/c /ZI /JMC /nologo /W3 /WX- /diagnostics:column /sdl /Od /Oy- /D WIN32 /D _DEBUG /D _CONSOLE /D _UNICODE /D UNICODE /Gm- /EHsc /RTC1 /MDd /GS /fp:precise /permissive- /Zc:wchar_t /Zc:forScope /Zc:inline /Fo"DEBUG\\" /Fd"DEBUG\VC142.PDB" /Gd /TC /analyze- /FC C:\USERS\ANTON\ADCS SPACE CENTER\CPP VS\SOFA\SRC\ZPV.C
^C:\USERS\ANTON\ADCS SPACE CENTER\CPP VS\SOFA\SRC\ZR.C
/c /ZI /JMC /nologo /W3 /WX- /diagnostics:column /sdl /Od /Oy- /D WIN32 /D _DEBUG /D _CONSOLE /D _UNICODE /D UNICODE /Gm- /EHsc /RTC1 /MDd /GS /fp:precise /permissive- /Zc:wchar_t /Zc:forScope /Zc:inline /Fo"DEBUG\\" /Fd"DEBUG\VC142.PDB" /Gd /TC /analyze- /FC C:\USERS\ANTON\ADCS SPACE CENTER\CPP VS\SOFA\SRC\ZR.C
